main,21330
main,59358
main,8311
main,19974
main,8725
main,11070
main,3152
main,36176
main,1970
main,30696
main,52283
main,14673
main,8282
main,28464
main,11511
main,49571
main,56857
main,31669
main,32054
main,31281
main,27327
main,18054
main,31761
main,27887
main,17082
main,55321
main,39902
main,44686
main,18992
main,19436
main,55594
main,63346
main,46865
main,46547
main,15587
main,54162
main,54644
main,7857
main,60912
usage,54601
fatal,28792
pmain,16287
pmain,48845
pmain,51342
pmain,3052
pmain,32806
pmain,8714
pmain,40025
pmain,60095
pmain,3427
pmain,33329
pmain,53060
pmain,64270
pmain,43307
pmain,31126
pmain,6568
pmain,11222
pmain,63077
pmain,18293
pmain,62370
pmain,54126
pmain,14456
pmain,60256
pmain,52883
pmain,9982
pmain,64962
pmain,48364
pmain,213
pmain,47868
pmain,41209
PrintFunction,10356
PrintFunction,7840
PrintFunction,5097
PrintFunction,16111
PrintFunction,54265
PrintFunction,44735
PrintFunction,42585
PrintFunction,40159
PrintFunction,48137
PrintFunction,26584
PrintFunction,18281
PrintFunction,35895
PrintFunction,12961
PrintFunction,48207
PrintFunction,14093
PrintFunction,8751
PrintFunction,6122
PrintFunction,46029
PrintFunction,21973
PrintFunction,34609
PrintFunction,9549
PrintFunction,53557
PrintFunction,7464
PrintFunction,23903
PrintFunction,55686
PrintFunction,48184
PrintFunction,10962
PrintFunction,9540
PrintFunction,54653
PrintFunction,19216
PrintFunction,16092
PrintFunction,27660
PrintFunction,44558
PrintFunction,33433
PrintFunction,4757
PrintFunction,11697
PrintFunction,16315
PrintFunction,904
PrintFunction,27898
PrintFunction,13844
PrintFunction,9759
PrintFunction,26480
PrintFunction,15036
PrintFunction,44644
PrintFunction,28233
PrintFunction,7364
PrintFunction,26291
PrintFunction,1004
PrintFunction,43178
PrintFunction,6309
PrintFunction,36944
PrintFunction,62242
PrintFunction,17725
PrintFunction,11502
PrintFunction,22418
PrintFunction,63672
PrintFunction,21838
PrintFunction,52898
PrintFunction,60638
cannot,41028
writer,30330
reader,2124
PrintConstant,17881
PrintConstant,61934
PrintConstant,37566
PrintConstant,43458
PrintConstant,20714
PrintConstant,62233
PrintConstant,37775
PrintConstant,18526
PrintConstant,33545
PrintConstant,26834
PrintConstant,41280
PrintConstant,26722
PrintConstant,46202
PrintConstant,59717
PrintConstant,50607
PrintConstant,2081
PrintConstant,64970
PrintConstant,64011
PrintConstant,1187
PrintConstant,45974
PrintConstant,16562
PrintConstant,60340
PrintConstant,50870
PrintConstant,48994
PrintConstant,29993
PrintConstant,8726
PrintConstant,24488
PrintConstant,42119
