luaopen_os,30399
os_clock,10429
os_date,24983
os_date,42952
os_date,34251
os_date,2275
os_date,36099
os_date,25333
os_date,13460
os_date,2651
os_date,57966
os_date,58544
os_date,3667
os_date,17898
os_date,63233
os_date,55220
os_date,38272
os_date,50154
os_date,41101
os_date,17735
os_date,54162
os_date,3699
os_date,29668
os_date,11579
os_date,64572
os_date,57944
os_date,60165
os_date,30242
os_date,3126
os_date,44072
os_difftime,11888
os_difftime,28921
os_difftime,33871
os_difftime,47880
os_difftime,41109
os_execute,19253
os_execute,20089
os_execute,54462
os_execute,51986
os_exit,27350
os_exit,14736
os_exit,42489
os_exit,5174
os_exit,7661
os_exit,55335
os_exit,9125
os_exit,19955
os_getenv,51847
os_remove,51585
os_rename,63262
os_setlocale,34271
os_time,56894
os_time,39933
os_time,38582
os_time,46326
os_time,11869
os_time,20154
os_time,4892
os_time,61553
os_time,33630
os_time,64287
os_time,53039
os_time,15265
os_time,6996
os_time,8007
os_time,28472
os_time,21703
os_time,31103
os_time,115
os_time,22483
os_time,4546
os_time,41968
os_time,23175
os_time,50030
os_time,59413
os_time,5009
os_time,60879
os_time,11335
os_time,31863
os_time,11922
os_time,23055
os_tmpname,16613
os_tmpname,60225
os_tmpname,40858
os_tmpname,51866
setallfields,41246
setallfields,32157
setallfields,15578
getfield,64538
getfield,8989
getfield,18196
getfield,51045
getfield,6510
getfield,24147
getfield,15176
getfield,12708
getfield,10927
getfield,17453
