luaopen_base,51527
luaB_assert,41237
luaB_assert,20251
luaB_assert,40063
luaB_assert,32237
luaB_collectgarbage,57500
luaB_collectgarbage,19176
luaB_collectgarbage,35331
luaB_collectgarbage,34140
luaB_collectgarbage,4032
luaB_dofile,54549
luaB_dofile,7461
luaB_dofile,51876
luaB_dofile,9687
luaB_error,32684
luaB_error,58713
luaB_error,52439
luaB_getmetatable,8855
luaB_getmetatable,10304
luaB_getmetatable,59037
luaB_getmetatable,47753
luaB_ipairs,57591
luaB_loadfile,18301
luaB_loadfile,911
luaB_loadfile,17319
luaB_loadfile,11547
luaB_loadfile,26432
luaB_loadfile,59679
luaB_load,15609
luaB_load,45426
luaB_load,15421
luaB_load,1432
luaB_load,7482
luaB_load,9479
luaB_load,59207
luaB_load,60327
luaB_load,53983
luaB_next,42818
luaB_next,14233
luaB_next,59189
luaB_pairs,48673
luaB_pcall,37885
luaB_pcall,24209
luaB_pcall,22341
luaB_pcall,35858
luaB_print,22576
luaB_print,40835
luaB_print,53603
luaB_print,34296
luaB_print,567
luaB_print,528
luaB_print,3856
luaB_print,47741
luaB_print,61259
luaB_rawequal,24868
luaB_rawlen,27991
luaB_rawlen,60112
luaB_rawlen,17574
luaB_rawget,32368
luaB_rawset,58604
luaB_select,42147
luaB_select,53969
luaB_select,39652
luaB_select,228
luaB_select,39583
luaB_select,36380
luaB_select,61691
luaB_setmetatable,29086
luaB_setmetatable,21375
luaB_setmetatable,40335
luaB_setmetatable,14185
luaB_setmetatable,54248
luaB_setmetatable,3130
luaB_tonumber,27547
luaB_tonumber,46201
luaB_tonumber,38188
luaB_tonumber,36259
luaB_tonumber,40260
luaB_tonumber,3121
luaB_tonumber,18789
luaB_tonumber,41284
luaB_tonumber,17280
luaB_tonumber,29870
luaB_tonumber,15800
luaB_tonumber,5640
luaB_tonumber,31952
luaB_tonumber,58925
luaB_tonumber,28588
luaB_tonumber,26950
luaB_tonumber,32017
luaB_tonumber,11215
luaB_tonumber,30428
luaB_tonumber,31290
luaB_tonumber,57850
luaB_tonumber,45641
luaB_tonumber,11580
luaB_tonumber,737
luaB_tonumber,58829
luaB_tostring,9692
luaB_type,16316
luaB_type,65228
luaB_type,35158
luaB_xpcall,3396
luaB_xpcall,55136
luaB_xpcall,54346
luaB_xpcall,37961
dofilecont,26286
pairsmeta,47499
pairsmeta,8006
pairsmeta,26451
pairsmeta,50917
pairsmeta,9501
pairsmeta,1357
ipairsaux,16725
generic_reader,11887
generic_reader,26381
generic_reader,15773
generic_reader,4660
generic_reader,59750
generic_reader,49515
finishpcall,15877
finishpcall,48585
finishpcall,24795
finishpcall,34203
