luaH_next,27927
luaH_next,5931
luaH_next,65079
luaH_next,5595
luaH_next,6153
luaH_next,60914
luaH_next,51776
luaH_next,62638
luaH_next,62167
luaH_next,11324
luaH_next,30763
luaH_next,21881
luaH_next,50556
luaH_next,46727
luaH_next,7022
luaH_next,51506
luaH_next,43083
luaH_next,51363
luaH_next,34397
luaH_next,7535
luaH_next,35792
luaH_next,31465
luaH_resize,46614
luaH_resize,59707
luaH_resize,27150
luaH_resize,1478
luaH_resize,13251
luaH_resize,51015
luaH_resize,43086
luaH_resize,29437
luaH_resize,21256
luaH_resize,19522
luaH_resize,7309
luaH_resize,41431
luaH_resize,62307
luaH_resize,16721
luaH_resize,51880
luaH_resize,54596
luaH_resize,11217
luaH_resize,10667
luaH_resize,54263
luaH_resize,30746
luaH_resize,35505
luaH_resize,250
luaH_resize,48432
luaH_resize,63164
luaH_resize,45094
luaH_resize,2956
luaH_resize,22500
luaH_resize,28575
luaH_resize,27818
luaH_resize,51836
luaH_resize,27947
luaH_resize,47120
luaH_resize,24128
luaH_resize,11996
luaH_resize,4396
luaH_resize,14834
luaH_resize,58968
luaH_resize,52957
setarrayvector,44771
setarrayvector,46016
setarrayvector,2200
setarrayvector,11198
setarrayvector,27824
setarrayvector,43973
auxsetnode,19533
luaH_setint,4268
luaH_setint,5633
luaH_setint,21109
luaH_setint,43639
luaH_setint,42618
luaH_setint,10312
luaH_setint,22401
luaH_setint,7001
luaH_setint,45608
luaH_setint,60408
luaH_set,10566
luaH_set,9525
luaH_set,21773
luaH_resizearray,61537
luaH_resizearray,27456
luaH_resizearray,30483
luaH_new,63015
setnodevector,17577
setnodevector,343
setnodevector,51694
setnodevector,43717
setnodevector,34877
setnodevector,214
setnodevector,10405
setnodevector,28115
setnodevector,6374
setnodevector,2349
luaH_free,60446
luaH_free,53250
luaH_free,24333
luaH_newkey,6446
luaH_newkey,46895
luaH_newkey,25398
luaH_newkey,22514
luaH_newkey,60154
luaH_newkey,3166
luaH_newkey,5142
luaH_newkey,38917
luaH_newkey,14386
luaH_newkey,51178
luaH_newkey,54599
luaH_newkey,15646
luaH_newkey,7917
luaH_newkey,15536
luaH_newkey,1468
luaH_newkey,10801
luaH_newkey,29150
luaH_newkey,11840
luaH_newkey,56634
luaH_newkey,14753
luaH_newkey,43027
luaH_newkey,24051
luaH_newkey,55963
luaH_newkey,53526
luaH_newkey,46755
luaH_newkey,47314
luaH_newkey,31186
luaH_newkey,27231
luaH_newkey,7981
luaH_newkey,34734
luaH_newkey,17101
luaH_newkey,17363
luaH_newkey,37696
luaH_newkey,35264
luaH_newkey,63559
luaH_newkey,14510
luaH_newkey,2401
luaH_newkey,23684
luaH_newkey,35994
luaH_newkey,63177
luaH_newkey,50844
luaH_newkey,53031
luaH_newkey,42379
luaH_newkey,55597
luaH_newkey,57494
luaH_newkey,59809
luaH_newkey,4794
luaH_newkey,55311
luaH_newkey,40841
luaH_newkey,5749
mainposition,9520
mainposition,14378
mainposition,58821
mainposition,4749
mainposition,49738
mainposition,46492
mainposition,47345
mainposition,51540
mainposition,48715
mainposition,9013
mainposition,860
mainposition,49733
luaH_getint,14924
luaH_getint,48145
luaH_getint,64547
luaH_getint,29093
luaH_getint,8619
luaH_getint,20453
luaH_getint,15998
luaH_getint,31184
luaH_getshortstr,27593
luaH_getshortstr,35246
luaH_getshortstr,46128
luaH_getshortstr,33591
luaH_getshortstr,62851
luaH_getshortstr,4445
luaH_getstr,45892
luaH_getstr,3830
luaH_getstr,28150
luaH_getstr,51045
luaH_getstr,40334
luaH_getstr,35692
luaH_getstr,58073
luaH_getstr,50858
luaH_getstr,15812
luaH_getstr,8736
luaH_getstr,28646
luaH_getstr,52807
luaH_get,65233
luaH_get,38546
luaH_get,63468
luaH_get,60724
luaH_get,31633
luaH_get,39104
luaH_get,50994
luaH_get,21408
luaH_get,39215
luaH_get,9210
luaH_get,47710
luaH_get,40288
luaH_get,11038
luaH_get,41391
luaH_get,27472
luaH_get,48923
luaH_get,49526
luaH_get,24182
luaH_get,64925
luaH_get,25746
luaH_get,18389
luaH_get,25270
luaH_get,23927
luaH_get,29640
luaH_get,38244
luaH_get,29358
luaH_get,33382
luaH_get,18405
luaH_getn,53136
luaH_getn,18568
luaH_getn,22923
luaH_getn,42241
luaH_getn,23890
luaH_getn,54371
luaH_getn,20259
luaH_getn,54302
luaH_getn,13895
luaH_getn,42496
luaH_getn,60716
luaH_getn,35428
luaH_getn,45450
luaH_getn,53842
luaH_getn,3362
luaH_getn,57716
luaH_getn,972
luaH_getn,6034
luaH_getn,12704
luaH_getn,30809
luaH_getn,49163
luaH_getn,59874
luaH_getn,34226
luaH_getn,42535
luaH_getn,62677
luaH_getn,20408
luaH_getn,26095
luaH_getn,25745
luaH_getn,55087
luaH_getn,19305
luaH_getn,20763
luaH_getn,49411
luaH_getn,22233
luaH_getn,45631
luaH_getn,38185
