luaE_setdebt,1420
luaE_extendCI,33179
luaE_freeCI,18302
luaE_freeCI,35435
luaE_freeCI,41799
luaE_freeCI,64587
luaE_shrinkCI,49703
luaE_shrinkCI,28474
luaE_shrinkCI,3966
luaE_shrinkCI,6690
luaE_shrinkCI,7474
lua_newthread,37590
lua_newthread,14134
lua_newthread,54422
lua_newthread,39058
lua_newthread,47940
luaE_freethread,10342
luaE_freethread,46064
luaE_freethread,49771
luaE_freethread,62807
luaE_freethread,11584
luaE_freethread,27757
lua_newstate,62213
lua_newstate,11143
lua_newstate,49341
lua_newstate,48877
f_luaopen,37707
f_luaopen,48775
f_luaopen,53101
close_state,29678
close_state,61340
close_state,1566
close_state,27665
close_state,34792
close_state,63593
lua_close,37936
