luaopen_package,18824
setpath,30108
setpath,41591
setpath,11327
setpath,57322
setpath,31535
setpath,3042
gctm,20009
gctm,59030
gctm,54535
ll_loadlib,32260
ll_loadlib,30404
ll_loadlib,47046
ll_searchpath,43055
ll_searchpath,13828
ll_searchpath,12664
lookforfunc,50344
lookforfunc,11336
lookforfunc,60716
lookforfunc,867
lookforfunc,54868
lookforfunc,36123
lookforfunc,45909
lookforfunc,55534
lookforfunc,2739
lookforfunc,5611
searchpath,49606
searchpath,49331
searchpath,33157
searchpath,44963
searchpath,28729
searchpath,14101
searchpath,34863
searchpath,39937
searchpath,48100
searchpath,17009
searchpath,7670
searchpath,29807
searchpath,43730
searchpath,27447
searcher_preload,64339
searcher_preload,15932
searcher_preload,3538
searcher_Lua,13991
searcher_Lua,26578
searcher_Lua,18144
searcher_Lua,51045
searcher_Lua,3308
searcher_Lua,57682
searcher_Lua,50416
searcher_C,18513
searcher_C,12143
searcher_C,55022
searcher_C,14227
searcher_C,61755
searcher_C,14149
searcher_C,9197
searcher_Croot,43433
searcher_Croot,29809
searcher_Croot,49431
searcher_Croot,50842
searcher_Croot,46158
searcher_Croot,34285
searcher_Croot,56723
searcher_Croot,27176
searcher_Croot,1142
loadfunc,43493
loadfunc,6337
loadfunc,55235
loadfunc,660
ll_require,62238
ll_require,46478
ll_require,44891
ll_require,18636
ll_require,16263
ll_require,15
ll_require,4571
ll_require,37920
ll_require,30103
ll_require,65289
ll_require,5175
ll_require,37433
ll_require,14181
ll_require,16111
ll_require,64334
ll_require,55335
