luaopen_coroutine,9690
luaB_cocreate,30104
luaB_coresume,55036
luaB_coresume,10091
luaB_coresume,32289
luaB_coresume,14233
luaB_coresume,7906
luaB_coresume,3602
luaB_corunning,36698
luaB_costatus,13135
luaB_costatus,12382
luaB_costatus,30177
luaB_costatus,13520
luaB_costatus,61541
luaB_costatus,19591
luaB_costatus,16068
luaB_costatus,57353
luaB_costatus,21169
luaB_costatus,30780
luaB_costatus,60619
luaB_cowrap,7070
luaB_yield,52810
luaB_yieldable,40266
auxresume,8492
auxresume,56665
auxresume,33211
auxresume,55813
auxresume,29487
auxresume,11972
auxresume,29125
auxresume,48011
auxresume,60844
auxresume,25829
auxresume,21146
luaB_auxwrap,47739
luaB_auxwrap,54142
luaB_auxwrap,25546
luaB_auxwrap,4249
luaB_auxwrap,32292
