luaV_tonumber_, 21459, 38489
luaV_tonumber_, 21459, 10661
luaV_tonumber_, 38489, 23902
luaV_tonumber_, 10661, 49321
luaV_tonumber_, 10661, 23902
luaV_tonumber_, 49321, 41279
luaV_tonumber_, 49321, 10071
luaV_tonumber_, 41279, 52140
luaV_tonumber_, 10071, 52140
luaV_tonumber_, 52140, 44113
luaV_tonumber_, 52140, 23902
luaV_tonumber_, 44113, 26950
luaV_tonumber_, 44113, 18968
luaV_tonumber_, 26950, 41976
luaV_tonumber_, 18968, 41976
luaV_tonumber_, 41976, 23902
luaV_tointeger, 53905, 17304
luaV_tointeger, 17304, 56356
luaV_tointeger, 17304, 60624
luaV_tointeger, 17304, 60630
luaV_tointeger, 60624, 24856
luaV_tointeger, 60624, 2464
luaV_tointeger, 24856, 43806
luaV_tointeger, 24856, 46633
luaV_tointeger, 46633, 2464
luaV_tointeger, 2464, 41646
luaV_tointeger, 2464, 43806
luaV_tointeger, 41646, 43806
luaV_tointeger, 60630, 43806
luaV_tointeger, 56356, 34582
luaV_tointeger, 56356, 43806
luaV_tointeger, 34582, 4854
luaV_tointeger, 34582, 52164
luaV_tointeger, 4854, 40865
luaV_tointeger, 52164, 40865
luaV_tointeger, 40865, 17304
luaV_tointeger, 40865, 43806
luaV_finishget, 968, 20170
luaV_finishget, 20170, 44048
luaV_finishget, 20170, 18273
luaV_finishget, 44048, 14216
luaV_finishget, 44048, 44399
luaV_finishget, 18273, 56665
luaV_finishget, 18273, 55684
luaV_finishget, 55684, 36881
luaV_finishget, 55684, 56665
luaV_finishget, 36881, 56665
luaV_finishget, 36881, 44399
luaV_finishget, 56665, 5220
luaV_finishget, 44399, 30381
luaV_finishget, 44399, 56924
luaV_finishget, 30381, 5220
luaV_finishget, 56924, 12644
luaV_finishget, 56924, 28047
luaV_finishget, 12644, 28047
luaV_finishget, 12644, 12586
luaV_finishget, 12586, 5220
luaV_finishget, 28047, 4869
luaV_finishget, 28047, 20170
luaV_finishset, 8490, 60710
luaV_finishset, 60710, 45494
luaV_finishset, 60710, 62866
luaV_finishset, 62866, 14974
luaV_finishset, 62866, 26140
luaV_finishset, 26140, 48462
luaV_finishset, 26140, 14974
luaV_finishset, 48462, 14974
luaV_finishset, 48462, 63111
luaV_finishset, 14974, 8901
luaV_finishset, 14974, 32800
luaV_finishset, 8901, 32800
luaV_finishset, 32800, 17815
luaV_finishset, 32800, 57863
luaV_finishset, 57863, 17815
luaV_finishset, 57863, 22984
luaV_finishset, 22984, 17815
luaV_finishset, 22984, 62609
luaV_finishset, 62609, 17815
luaV_finishset, 45494, 34900
luaV_finishset, 45494, 63111
luaV_finishset, 63111, 14323
luaV_finishset, 63111, 45606
luaV_finishset, 14323, 17815
luaV_finishset, 45606, 28186
luaV_finishset, 45606, 62198
luaV_finishset, 28186, 62198
luaV_finishset, 28186, 9816
luaV_finishset, 9816, 52906
luaV_finishset, 9816, 50171
luaV_finishset, 50171, 52906
luaV_finishset, 50171, 41120
luaV_finishset, 41120, 52906
luaV_finishset, 41120, 52245
luaV_finishset, 52245, 52906
luaV_finishset, 52906, 17815
luaV_finishset, 62198, 48911
luaV_finishset, 62198, 60710
luaV_lessthan, 38242, 13637
luaV_lessthan, 38242, 41987
luaV_lessthan, 38242, 22522
luaV_lessthan, 41987, 24548
luaV_lessthan, 41987, 13637
luaV_lessthan, 24548, 26206
luaV_lessthan, 24548, 24170
luaV_lessthan, 26206, 51121
luaV_lessthan, 26206, 24918
luaV_lessthan, 51121, 45549
luaV_lessthan, 24918, 43579
luaV_lessthan, 24918, 63342
luaV_lessthan, 63342, 6436
luaV_lessthan, 63342, 45549
luaV_lessthan, 6436, 13085
luaV_lessthan, 6436, 45549
luaV_lessthan, 13085, 45549
luaV_lessthan, 43579, 45549
luaV_lessthan, 24170, 44764
luaV_lessthan, 24170, 25899
luaV_lessthan, 44764, 45549
luaV_lessthan, 25899, 31710
luaV_lessthan, 25899, 45549
luaV_lessthan, 31710, 21323
luaV_lessthan, 31710, 30416
luaV_lessthan, 30416, 15633
luaV_lessthan, 30416, 3435
luaV_lessthan, 15633, 3435
luaV_lessthan, 15633, 64414
luaV_lessthan, 64414, 3435
luaV_lessthan, 21323, 3435
luaV_lessthan, 3435, 45549
luaV_lessthan, 45549, 51765
luaV_lessthan, 22522, 20212
luaV_lessthan, 22522, 13637
luaV_lessthan, 20212, 58036
luaV_lessthan, 20212, 27951
luaV_lessthan, 58036, 17720
luaV_lessthan, 27951, 17720
luaV_lessthan, 17720, 59791
luaV_lessthan, 17720, 36283
luaV_lessthan, 59791, 53430
luaV_lessthan, 36283, 53430
luaV_lessthan, 53430, 14910
luaV_lessthan, 53430, 48449
luaV_lessthan, 14910, 48449
luaV_lessthan, 14910, 5920
luaV_lessthan, 5920, 48449
luaV_lessthan, 5920, 3594
luaV_lessthan, 3594, 14910
luaV_lessthan, 3594, 48449
luaV_lessthan, 48449, 51765
luaV_lessthan, 13637, 25898
luaV_lessthan, 13637, 51765
luaV_lessequal, 6093, 48544
luaV_lessequal, 6093, 10842
luaV_lessequal, 6093, 48024
luaV_lessequal, 10842, 29079
luaV_lessequal, 10842, 48544
luaV_lessequal, 29079, 52954
luaV_lessequal, 29079, 36904
luaV_lessequal, 52954, 8929
luaV_lessequal, 52954, 63026
luaV_lessequal, 8929, 39608
luaV_lessequal, 63026, 54528
luaV_lessequal, 63026, 47029
luaV_lessequal, 47029, 42204
luaV_lessequal, 47029, 39608
luaV_lessequal, 42204, 39608
luaV_lessequal, 42204, 30420
luaV_lessequal, 30420, 39608
luaV_lessequal, 54528, 39608
luaV_lessequal, 36904, 57894
luaV_lessequal, 36904, 60594
luaV_lessequal, 57894, 39608
luaV_lessequal, 60594, 24053
luaV_lessequal, 60594, 39608
luaV_lessequal, 24053, 55467
luaV_lessequal, 24053, 23068
luaV_lessequal, 23068, 26867
luaV_lessequal, 23068, 41052
luaV_lessequal, 26867, 19033
luaV_lessequal, 26867, 41052
luaV_lessequal, 19033, 41052
luaV_lessequal, 55467, 41052
luaV_lessequal, 41052, 39608
luaV_lessequal, 39608, 36430
luaV_lessequal, 48024, 53166
luaV_lessequal, 48024, 48544
luaV_lessequal, 53166, 5335
luaV_lessequal, 53166, 64440
luaV_lessequal, 5335, 21412
luaV_lessequal, 64440, 21412
luaV_lessequal, 21412, 6560
luaV_lessequal, 21412, 46018
luaV_lessequal, 6560, 12598
luaV_lessequal, 46018, 12598
luaV_lessequal, 12598, 4913
luaV_lessequal, 12598, 61073
luaV_lessequal, 4913, 62032
luaV_lessequal, 4913, 46934
luaV_lessequal, 62032, 61073
luaV_lessequal, 46934, 61073
luaV_lessequal, 46934, 57144
luaV_lessequal, 57144, 4913
luaV_lessequal, 57144, 61073
luaV_lessequal, 61073, 36430
luaV_lessequal, 48544, 36430
luaV_lessequal, 48544, 24425
luaV_lessequal, 24425, 21035
luaV_lessequal, 24425, 59714
luaV_lessequal, 59714, 36430
luaV_equalobj, 38499, 36159
luaV_equalobj, 38499, 35269
luaV_equalobj, 35269, 23231
luaV_equalobj, 35269, 59331
luaV_equalobj, 23231, 52691
luaV_equalobj, 23231, 40747
luaV_equalobj, 52691, 28278
luaV_equalobj, 40747, 44790
luaV_equalobj, 44790, 46790
luaV_equalobj, 44790, 36405
luaV_equalobj, 44790, 18234
luaV_equalobj, 36405, 17552
luaV_equalobj, 36405, 8107
luaV_equalobj, 8107, 64650
luaV_equalobj, 8107, 17552
luaV_equalobj, 64650, 18821
luaV_equalobj, 18234, 18821
luaV_equalobj, 46790, 31240
luaV_equalobj, 46790, 17552
luaV_equalobj, 31240, 23859
luaV_equalobj, 31240, 12592
luaV_equalobj, 23859, 60940
luaV_equalobj, 12592, 60940
luaV_equalobj, 60940, 44790
luaV_equalobj, 60940, 17552
luaV_equalobj, 17552, 59331
luaV_equalobj, 18821, 28278
luaV_equalobj, 28278, 29115
luaV_equalobj, 28278, 45765
luaV_equalobj, 29115, 4536
luaV_equalobj, 45765, 15187
luaV_equalobj, 15187, 60071
luaV_equalobj, 15187, 49987
luaV_equalobj, 15187, 57809
luaV_equalobj, 49987, 40822
luaV_equalobj, 49987, 770
luaV_equalobj, 770, 3859
luaV_equalobj, 770, 40822
luaV_equalobj, 3859, 41823
luaV_equalobj, 57809, 41823
luaV_equalobj, 60071, 23337
luaV_equalobj, 60071, 40822
luaV_equalobj, 23337, 44743
luaV_equalobj, 23337, 12515
luaV_equalobj, 44743, 65234
luaV_equalobj, 12515, 65234
luaV_equalobj, 65234, 15187
luaV_equalobj, 65234, 40822
luaV_equalobj, 40822, 59331
luaV_equalobj, 41823, 4536
luaV_equalobj, 4536, 59331
luaV_equalobj, 36159, 58913
luaV_equalobj, 36159, 59331
luaV_equalobj, 36159, 19999
luaV_equalobj, 36159, 37977
luaV_equalobj, 36159, 41408
luaV_equalobj, 36159, 21243
luaV_equalobj, 36159, 14987
luaV_equalobj, 36159, 42062
luaV_equalobj, 36159, 47197
luaV_equalobj, 36159, 46325
luaV_equalobj, 36159, 63660
luaV_equalobj, 19999, 59331
luaV_equalobj, 37977, 59331
luaV_equalobj, 41408, 59331
luaV_equalobj, 21243, 59331
luaV_equalobj, 14987, 59331
luaV_equalobj, 42062, 59331
luaV_equalobj, 47197, 59331
luaV_equalobj, 46325, 59331
luaV_equalobj, 46325, 62373
luaV_equalobj, 62373, 59331
luaV_equalobj, 62373, 52194
luaV_equalobj, 52194, 3607
luaV_equalobj, 52194, 17332
luaV_equalobj, 17332, 17271
luaV_equalobj, 17332, 3607
luaV_equalobj, 17271, 3607
luaV_equalobj, 17271, 20780
luaV_equalobj, 3607, 59331
luaV_equalobj, 3607, 52262
luaV_equalobj, 52262, 4914
luaV_equalobj, 52262, 59331
luaV_equalobj, 63660, 59331
luaV_equalobj, 63660, 41794
luaV_equalobj, 41794, 59331
luaV_equalobj, 41794, 39275
luaV_equalobj, 39275, 57326
luaV_equalobj, 39275, 53310
luaV_equalobj, 53310, 36665
luaV_equalobj, 53310, 57326
luaV_equalobj, 36665, 57326
luaV_equalobj, 36665, 20780
luaV_equalobj, 57326, 59331
luaV_equalobj, 57326, 34121
luaV_equalobj, 34121, 4914
luaV_equalobj, 34121, 59331
luaV_equalobj, 58913, 59331
luaV_equalobj, 4914, 59331
luaV_equalobj, 4914, 20780
luaV_equalobj, 20780, 11103
luaV_equalobj, 20780, 59331
luaV_equalobj, 20780, 65235
luaV_equalobj, 65235, 59331
luaV_equalobj, 11103, 59331
luaV_concat, 9650, 21933
luaV_concat, 21933, 5546
luaV_concat, 21933, 38180
luaV_concat, 5546, 38180
luaV_concat, 5546, 61577
luaV_concat, 5546, 19263
luaV_concat, 19263, 61577
luaV_concat, 38180, 31523
luaV_concat, 61577, 8149
luaV_concat, 61577, 33792
luaV_concat, 8149, 34973
luaV_concat, 8149, 33792
luaV_concat, 34973, 18822
luaV_concat, 34973, 31523
luaV_concat, 18822, 31523
luaV_concat, 33792, 19340
luaV_concat, 33792, 40457
luaV_concat, 19340, 51902
luaV_concat, 19340, 40457
luaV_concat, 51902, 31523
luaV_concat, 40457, 47558
luaV_concat, 40457, 3097
luaV_concat, 47558, 14398
luaV_concat, 3097, 14398
luaV_concat, 14398, 38757
luaV_concat, 14398, 27983
luaV_concat, 38757, 27983
luaV_concat, 38757, 56388
luaV_concat, 38757, 9124
luaV_concat, 9124, 56388
luaV_concat, 56388, 26108
luaV_concat, 56388, 21389
luaV_concat, 26108, 54988
luaV_concat, 21389, 54988
luaV_concat, 54988, 29478
luaV_concat, 54988, 54855
luaV_concat, 29478, 27983
luaV_concat, 29478, 38757
luaV_concat, 27983, 20342
luaV_concat, 27983, 8618
luaV_concat, 20342, 36440
luaV_concat, 36440, 21907
luaV_concat, 36440, 58310
luaV_concat, 21907, 62921
luaV_concat, 58310, 62921
luaV_concat, 62921, 36440
luaV_concat, 62921, 45283
luaV_concat, 45283, 45530
luaV_concat, 8618, 48115
luaV_concat, 48115, 62808
luaV_concat, 48115, 46130
luaV_concat, 62808, 2465
luaV_concat, 46130, 2465
luaV_concat, 2465, 48115
luaV_concat, 2465, 45530
luaV_concat, 45530, 31523
luaV_concat, 31523, 21933
luaV_concat, 31523, 16342
luaV_objlen, 42991, 50171
luaV_objlen, 42991, 58736
luaV_objlen, 42991, 51948
luaV_objlen, 42991, 58687
luaV_objlen, 58736, 41002
luaV_objlen, 58736, 26112
luaV_objlen, 26112, 4506
luaV_objlen, 26112, 41002
luaV_objlen, 4506, 41002
luaV_objlen, 4506, 19512
luaV_objlen, 41002, 6183
luaV_objlen, 51948, 6183
luaV_objlen, 58687, 6183
luaV_objlen, 50171, 50200
luaV_objlen, 50171, 19512
luaV_objlen, 19512, 6183
luaV_div, 5317, 2091
luaV_div, 5317, 29079
luaV_div, 2091, 565
luaV_div, 2091, 20160
luaV_div, 20160, 60949
luaV_div, 29079, 61232
luaV_div, 29079, 60949
luaV_mod, 51920, 4291
luaV_mod, 51920, 237
luaV_mod, 4291, 62735
luaV_mod, 4291, 57656
luaV_mod, 237, 57656
luaV_mod, 237, 22399
luaV_shiftl, 17624, 54536
luaV_shiftl, 17624, 11739
luaV_finishOp, 32455, 9671
luaV_finishOp, 32455, 45164
luaV_finishOp, 32455, 45164
luaV_finishOp, 32455, 45164
luaV_finishOp, 32455, 45164
luaV_finishOp, 32455, 45164
luaV_finishOp, 32455, 45164
luaV_finishOp, 32455, 45164
luaV_finishOp, 32455, 45164
luaV_finishOp, 32455, 45164
luaV_finishOp, 32455, 45164
luaV_finishOp, 32455, 45164
luaV_finishOp, 32455, 45164
luaV_finishOp, 32455, 45164
luaV_finishOp, 32455, 45164
luaV_finishOp, 32455, 45164
luaV_finishOp, 32455, 45164
luaV_finishOp, 32455, 45164
luaV_finishOp, 32455, 45164
luaV_finishOp, 32455, 47444
luaV_finishOp, 32455, 47444
luaV_finishOp, 32455, 47444
luaV_finishOp, 32455, 62425
luaV_finishOp, 32455, 26353
luaV_finishOp, 32455, 49576
luaV_finishOp, 45164, 9671
luaV_finishOp, 47444, 62941
luaV_finishOp, 47444, 33267
luaV_finishOp, 47444, 49927
luaV_finishOp, 49927, 33267
luaV_finishOp, 62941, 33267
luaV_finishOp, 33267, 58274
luaV_finishOp, 33267, 1895
luaV_finishOp, 1895, 58274
luaV_finishOp, 58274, 9671
luaV_finishOp, 58274, 47037
luaV_finishOp, 47037, 9671
luaV_finishOp, 62425, 45824
luaV_finishOp, 62425, 32148
luaV_finishOp, 45824, 32148
luaV_finishOp, 32148, 9671
luaV_finishOp, 26353, 9671
luaV_finishOp, 49576, 9671
luaV_finishOp, 49576, 8043
luaV_finishOp, 8043, 9671
luaV_execute, 9610, 7982
luaV_execute, 7982, 54624
luaV_execute, 54624, 37996
luaV_execute, 54624, 2507
luaV_execute, 2507, 37996
luaV_execute, 37996, 61419
luaV_execute, 37996, 44848
luaV_execute, 37996, 55426
luaV_execute, 37996, 46077
luaV_execute, 37996, 27523
luaV_execute, 37996, 62255
luaV_execute, 37996, 35050
luaV_execute, 37996, 38426
luaV_execute, 37996, 26705
luaV_execute, 37996, 30761
luaV_execute, 37996, 42821
luaV_execute, 37996, 4917
luaV_execute, 37996, 54867
luaV_execute, 37996, 19700
luaV_execute, 37996, 2197
luaV_execute, 37996, 6927
luaV_execute, 37996, 13109
luaV_execute, 37996, 61374
luaV_execute, 37996, 14671
luaV_execute, 37996, 58766
luaV_execute, 37996, 23933
luaV_execute, 37996, 21732
luaV_execute, 37996, 47722
luaV_execute, 37996, 23839
luaV_execute, 37996, 15401
luaV_execute, 37996, 17878
luaV_execute, 37996, 5940
luaV_execute, 37996, 31067
luaV_execute, 37996, 25201
luaV_execute, 37996, 34909
luaV_execute, 37996, 15
luaV_execute, 37996, 38363
luaV_execute, 37996, 45628
luaV_execute, 37996, 34192
luaV_execute, 37996, 31399
luaV_execute, 37996, 60229
luaV_execute, 37996, 32792
luaV_execute, 37996, 50971
luaV_execute, 37996, 51637
luaV_execute, 37996, 33840
luaV_execute, 37996, 63396
luaV_execute, 37996, 26908
luaV_execute, 37996, 43047
luaV_execute, 37996, 48235
luaV_execute, 37996, 51539
luaV_execute, 37996, 3835
luaV_execute, 37996, 30489
luaV_execute, 44848, 61419
luaV_execute, 55426, 61419
luaV_execute, 46077, 61419
luaV_execute, 27523, 61419
luaV_execute, 27523, 18666
luaV_execute, 18666, 61419
luaV_execute, 62255, 45755
luaV_execute, 45755, 61419
luaV_execute, 45755, 45755
luaV_execute, 35050, 61419
luaV_execute, 38426, 25576
luaV_execute, 38426, 37396
luaV_execute, 25576, 37396
luaV_execute, 25576, 18055
luaV_execute, 18055, 61419
luaV_execute, 37396, 61419
luaV_execute, 26705, 18410
luaV_execute, 26705, 64987
luaV_execute, 18410, 64987
luaV_execute, 18410, 12978
luaV_execute, 12978, 61419
luaV_execute, 64987, 61419
luaV_execute, 30761, 29876
luaV_execute, 30761, 9691
luaV_execute, 29876, 9691
luaV_execute, 29876, 26268
luaV_execute, 26268, 8525
luaV_execute, 26268, 54269
luaV_execute, 54269, 8525
luaV_execute, 54269, 65211
luaV_execute, 65211, 8525
luaV_execute, 65211, 30213
luaV_execute, 30213, 8525
luaV_execute, 8525, 61419
luaV_execute, 9691, 61419
luaV_execute, 42821, 29512
luaV_execute, 42821, 61419
luaV_execute, 29512, 61419
luaV_execute, 4917, 21378
luaV_execute, 4917, 7187
luaV_execute, 21378, 7187
luaV_execute, 21378, 27857
luaV_execute, 27857, 49627
luaV_execute, 27857, 60835
luaV_execute, 60835, 49627
luaV_execute, 60835, 30659
luaV_execute, 30659, 49627
luaV_execute, 30659, 33126
luaV_execute, 33126, 49627
luaV_execute, 49627, 61419
luaV_execute, 7187, 61419
luaV_execute, 54867, 46909
luaV_execute, 54867, 55295
luaV_execute, 55295, 46909
luaV_execute, 46909, 34437
luaV_execute, 46909, 61419
luaV_execute, 34437, 61419
luaV_execute, 19700, 36849
luaV_execute, 19700, 57863
luaV_execute, 36849, 57863
luaV_execute, 36849, 13859
luaV_execute, 13859, 61419
luaV_execute, 57863, 61419
luaV_execute, 2197, 40450
luaV_execute, 2197, 50400
luaV_execute, 2197, 5355
luaV_execute, 50400, 53494
luaV_execute, 50400, 40450
luaV_execute, 53494, 61419
luaV_execute, 5355, 1816
luaV_execute, 40450, 14503
luaV_execute, 40450, 35948
luaV_execute, 14503, 26556
luaV_execute, 35948, 34901
luaV_execute, 35948, 59952
luaV_execute, 34901, 17611
luaV_execute, 34901, 14286
luaV_execute, 17611, 44633
luaV_execute, 14286, 44633
luaV_execute, 44633, 54418
luaV_execute, 44633, 59952
luaV_execute, 54418, 27316
luaV_execute, 54418, 61319
luaV_execute, 27316, 26556
luaV_execute, 61319, 26556
luaV_execute, 26556, 1816
luaV_execute, 59952, 31
luaV_execute, 1816, 58808
luaV_execute, 1816, 24980
luaV_execute, 58808, 45786
luaV_execute, 24980, 8392
luaV_execute, 24980, 37109
luaV_execute, 8392, 10258
luaV_execute, 37109, 24435
luaV_execute, 37109, 33230
luaV_execute, 24435, 44586
luaV_execute, 24435, 32801
luaV_execute, 44586, 18461
luaV_execute, 32801, 18461
luaV_execute, 18461, 61181
luaV_execute, 18461, 33230
luaV_execute, 61181, 30274
luaV_execute, 61181, 61892
luaV_execute, 30274, 10258
luaV_execute, 61892, 10258
luaV_execute, 10258, 45786
luaV_execute, 33230, 31
luaV_execute, 45786, 61419
luaV_execute, 31, 61419
luaV_execute, 6927, 3128
luaV_execute, 6927, 37376
luaV_execute, 6927, 31801
luaV_execute, 37376, 57467
luaV_execute, 37376, 3128
luaV_execute, 57467, 61419
luaV_execute, 31801, 64955
luaV_execute, 3128, 36562
luaV_execute, 3128, 50037
luaV_execute, 36562, 3047
luaV_execute, 50037, 44375
luaV_execute, 50037, 16869
luaV_execute, 44375, 50914
luaV_execute, 44375, 521
luaV_execute, 50914, 24547
luaV_execute, 521, 24547
luaV_execute, 24547, 7707
luaV_execute, 24547, 16869
luaV_execute, 7707, 54553
luaV_execute, 7707, 6083
luaV_execute, 54553, 3047
luaV_execute, 6083, 3047
luaV_execute, 3047, 64955
luaV_execute, 16869, 57940
luaV_execute, 64955, 41881
luaV_execute, 64955, 34478
luaV_execute, 41881, 44661
luaV_execute, 34478, 20391
luaV_execute, 34478, 64383
luaV_execute, 20391, 44918
luaV_execute, 64383, 19785
luaV_execute, 64383, 7530
luaV_execute, 19785, 60780
luaV_execute, 19785, 51847
luaV_execute, 60780, 38645
luaV_execute, 51847, 38645
luaV_execute, 38645, 61810
luaV_execute, 38645, 7530
luaV_execute, 61810, 49246
luaV_execute, 61810, 32462
luaV_execute, 49246, 44918
luaV_execute, 32462, 44918
luaV_execute, 44918, 44661
luaV_execute, 7530, 57940
luaV_execute, 44661, 61419
luaV_execute, 57940, 61419
luaV_execute, 13109, 47238
luaV_execute, 13109, 35430
luaV_execute, 13109, 19658
luaV_execute, 35430, 42432
luaV_execute, 35430, 47238
luaV_execute, 42432, 61419
luaV_execute, 19658, 11863
luaV_execute, 47238, 24628
luaV_execute, 47238, 38069
luaV_execute, 24628, 51676
luaV_execute, 38069, 23104
luaV_execute, 38069, 37513
luaV_execute, 23104, 63308
luaV_execute, 23104, 8835
luaV_execute, 63308, 23360
luaV_execute, 8835, 23360
luaV_execute, 23360, 19746
luaV_execute, 23360, 37513
luaV_execute, 19746, 14308
luaV_execute, 19746, 50709
luaV_execute, 14308, 51676
luaV_execute, 50709, 51676
luaV_execute, 51676, 11863
luaV_execute, 37513, 11740
luaV_execute, 11863, 46837
luaV_execute, 11863, 63229
luaV_execute, 46837, 53215
luaV_execute, 63229, 30039
luaV_execute, 63229, 40403
luaV_execute, 30039, 26350
luaV_execute, 40403, 21878
luaV_execute, 40403, 16453
luaV_execute, 21878, 71
luaV_execute, 21878, 24115
luaV_execute, 71, 64361
luaV_execute, 24115, 64361
luaV_execute, 64361, 44862
luaV_execute, 64361, 16453
luaV_execute, 44862, 8712
luaV_execute, 44862, 24929
luaV_execute, 8712, 26350
luaV_execute, 24929, 26350
luaV_execute, 26350, 53215
luaV_execute, 16453, 11740
luaV_execute, 53215, 61419
luaV_execute, 11740, 61419
luaV_execute, 61374, 53839
luaV_execute, 61374, 59536
luaV_execute, 53839, 9951
luaV_execute, 59536, 38462
luaV_execute, 59536, 7474
luaV_execute, 38462, 30293
luaV_execute, 7474, 47340
luaV_execute, 7474, 22628
luaV_execute, 47340, 39787
luaV_execute, 47340, 5388
luaV_execute, 39787, 38870
luaV_execute, 5388, 38870
luaV_execute, 38870, 60798
luaV_execute, 38870, 22628
luaV_execute, 60798, 49324
luaV_execute, 60798, 5067
luaV_execute, 49324, 30293
luaV_execute, 5067, 30293
luaV_execute, 30293, 9951
luaV_execute, 22628, 43635
luaV_execute, 9951, 17516
luaV_execute, 9951, 27409
luaV_execute, 17516, 25506
luaV_execute, 27409, 64856
luaV_execute, 27409, 24161
luaV_execute, 64856, 60904
luaV_execute, 24161, 55814
luaV_execute, 24161, 23210
luaV_execute, 55814, 32587
luaV_execute, 55814, 39180
luaV_execute, 32587, 43538
luaV_execute, 39180, 43538
luaV_execute, 43538, 45450
luaV_execute, 43538, 23210
luaV_execute, 45450, 29284
luaV_execute, 45450, 64454
luaV_execute, 29284, 60904
luaV_execute, 64454, 60904
luaV_execute, 60904, 25506
luaV_execute, 23210, 43635
luaV_execute, 25506, 61419
luaV_execute, 43635, 61419
luaV_execute, 14671, 41246
luaV_execute, 14671, 1434
luaV_execute, 41246, 19056
luaV_execute, 1434, 63490
luaV_execute, 63490, 9908
luaV_execute, 63490, 12812
luaV_execute, 63490, 52237
luaV_execute, 12812, 28359
luaV_execute, 12812, 57231
luaV_execute, 57231, 25851
luaV_execute, 57231, 28359
luaV_execute, 25851, 55777
luaV_execute, 52237, 55777
luaV_execute, 9908, 20725
luaV_execute, 9908, 28359
luaV_execute, 20725, 7329
luaV_execute, 20725, 52264
luaV_execute, 7329, 23629
luaV_execute, 52264, 23629
luaV_execute, 23629, 63490
luaV_execute, 23629, 28359
luaV_execute, 28359, 27058
luaV_execute, 55777, 19056
luaV_execute, 19056, 2073
luaV_execute, 19056, 46992
luaV_execute, 2073, 26170
luaV_execute, 46992, 35332
luaV_execute, 35332, 62883
luaV_execute, 35332, 29103
luaV_execute, 35332, 51673
luaV_execute, 29103, 31905
luaV_execute, 29103, 33179
luaV_execute, 33179, 28008
luaV_execute, 33179, 31905
luaV_execute, 28008, 44944
luaV_execute, 51673, 44944
luaV_execute, 62883, 46861
luaV_execute, 62883, 31905
luaV_execute, 46861, 35238
luaV_execute, 46861, 37716
luaV_execute, 35238, 56888
luaV_execute, 37716, 56888
luaV_execute, 56888, 35332
luaV_execute, 56888, 31905
luaV_execute, 31905, 27058
luaV_execute, 44944, 26170
luaV_execute, 26170, 61419
luaV_execute, 27058, 61419
luaV_execute, 58766, 31751
luaV_execute, 58766, 53462
luaV_execute, 31751, 23809
luaV_execute, 53462, 11170
luaV_execute, 11170, 30020
luaV_execute, 11170, 16116
luaV_execute, 11170, 63835
luaV_execute, 16116, 44021
luaV_execute, 16116, 14600
luaV_execute, 14600, 53888
luaV_execute, 14600, 44021
luaV_execute, 53888, 41417
luaV_execute, 63835, 41417
luaV_execute, 30020, 23868
luaV_execute, 30020, 44021
luaV_execute, 23868, 55505
luaV_execute, 23868, 63545
luaV_execute, 55505, 34931
luaV_execute, 63545, 34931
luaV_execute, 34931, 11170
luaV_execute, 34931, 44021
luaV_execute, 44021, 2275
luaV_execute, 41417, 23809
luaV_execute, 23809, 14058
luaV_execute, 23809, 63209
luaV_execute, 14058, 31421
luaV_execute, 63209, 50878
luaV_execute, 50878, 6051
luaV_execute, 50878, 23090
luaV_execute, 50878, 49637
luaV_execute, 23090, 57283
luaV_execute, 23090, 48022
luaV_execute, 48022, 3711
luaV_execute, 48022, 57283
luaV_execute, 3711, 10100
luaV_execute, 49637, 10100
luaV_execute, 6051, 35549
luaV_execute, 6051, 57283
luaV_execute, 35549, 16321
luaV_execute, 35549, 45139
luaV_execute, 16321, 47392
luaV_execute, 45139, 47392
luaV_execute, 47392, 50878
luaV_execute, 47392, 57283
luaV_execute, 57283, 2275
luaV_execute, 10100, 31421
luaV_execute, 31421, 61419
luaV_execute, 2275, 61419
luaV_execute, 23933, 47464
luaV_execute, 23933, 8792
luaV_execute, 47464, 31085
luaV_execute, 8792, 10733
luaV_execute, 10733, 63623
luaV_execute, 10733, 42708
luaV_execute, 10733, 40931
luaV_execute, 42708, 30959
luaV_execute, 42708, 27652
luaV_execute, 27652, 16456
luaV_execute, 27652, 30959
luaV_execute, 16456, 36235
luaV_execute, 40931, 36235
luaV_execute, 63623, 11987
luaV_execute, 63623, 30959
luaV_execute, 11987, 6047
luaV_execute, 11987, 57761
luaV_execute, 6047, 19721
luaV_execute, 57761, 19721
luaV_execute, 19721, 10733
luaV_execute, 19721, 30959
luaV_execute, 30959, 30270
luaV_execute, 36235, 31085
luaV_execute, 31085, 33183
luaV_execute, 31085, 3908
luaV_execute, 33183, 57159
luaV_execute, 3908, 18031
luaV_execute, 18031, 32012
luaV_execute, 18031, 33253
luaV_execute, 18031, 29072
luaV_execute, 33253, 64937
luaV_execute, 33253, 29087
luaV_execute, 29087, 22013
luaV_execute, 29087, 64937
luaV_execute, 22013, 43169
luaV_execute, 29072, 43169
luaV_execute, 32012, 54660
luaV_execute, 32012, 64937
luaV_execute, 54660, 4850
luaV_execute, 54660, 37842
luaV_execute, 4850, 58502
luaV_execute, 37842, 58502
luaV_execute, 58502, 18031
luaV_execute, 58502, 64937
luaV_execute, 64937, 30270
luaV_execute, 43169, 57159
luaV_execute, 57159, 61419
luaV_execute, 30270, 61419
luaV_execute, 21732, 1245
luaV_execute, 21732, 48820
luaV_execute, 1245, 6469
luaV_execute, 48820, 34967
luaV_execute, 34967, 2853
luaV_execute, 34967, 29867
luaV_execute, 34967, 20563
luaV_execute, 29867, 57527
luaV_execute, 29867, 57914
luaV_execute, 57914, 54388
luaV_execute, 57914, 57527
luaV_execute, 54388, 19076
luaV_execute, 20563, 19076
luaV_execute, 2853, 38684
luaV_execute, 2853, 57527
luaV_execute, 38684, 22489
luaV_execute, 38684, 32723
luaV_execute, 22489, 55575
luaV_execute, 32723, 55575
luaV_execute, 55575, 34967
luaV_execute, 55575, 57527
luaV_execute, 57527, 18276
luaV_execute, 19076, 6469
luaV_execute, 6469, 56440
luaV_execute, 6469, 15036
luaV_execute, 56440, 39022
luaV_execute, 15036, 42213
luaV_execute, 42213, 8278
luaV_execute, 42213, 52096
luaV_execute, 42213, 3329
luaV_execute, 52096, 24423
luaV_execute, 52096, 41448
luaV_execute, 41448, 65485
luaV_execute, 41448, 24423
luaV_execute, 65485, 50315
luaV_execute, 3329, 50315
luaV_execute, 8278, 45926
luaV_execute, 8278, 24423
luaV_execute, 45926, 46878
luaV_execute, 45926, 13077
luaV_execute, 46878, 24769
luaV_execute, 13077, 24769
luaV_execute, 24769, 42213
luaV_execute, 24769, 24423
luaV_execute, 24423, 18276
luaV_execute, 50315, 39022
luaV_execute, 39022, 18771
luaV_execute, 39022, 64500
luaV_execute, 18771, 4115
luaV_execute, 64500, 4115
luaV_execute, 4115, 61419
luaV_execute, 18276, 61419
luaV_execute, 47722, 35149
luaV_execute, 47722, 24489
luaV_execute, 35149, 25650
luaV_execute, 24489, 2648
luaV_execute, 2648, 30387
luaV_execute, 2648, 44661
luaV_execute, 2648, 40069
luaV_execute, 44661, 29499
luaV_execute, 44661, 14194
luaV_execute, 14194, 51453
luaV_execute, 14194, 29499
luaV_execute, 51453, 46557
luaV_execute, 40069, 46557
luaV_execute, 30387, 27447
luaV_execute, 30387, 29499
luaV_execute, 27447, 42455
luaV_execute, 27447, 6416
luaV_execute, 42455, 30860
luaV_execute, 6416, 30860
luaV_execute, 30860, 2648
luaV_execute, 30860, 29499
luaV_execute, 29499, 35600
luaV_execute, 46557, 25650
luaV_execute, 25650, 41963
luaV_execute, 25650, 10879
luaV_execute, 41963, 62245
luaV_execute, 10879, 33742
luaV_execute, 33742, 58705
luaV_execute, 33742, 33684
luaV_execute, 33742, 9613
luaV_execute, 33684, 1428
luaV_execute, 33684, 62101
luaV_execute, 62101, 38871
luaV_execute, 62101, 1428
luaV_execute, 38871, 21850
luaV_execute, 9613, 21850
luaV_execute, 58705, 12361
luaV_execute, 58705, 1428
luaV_execute, 12361, 55168
luaV_execute, 12361, 21550
luaV_execute, 55168, 50507
luaV_execute, 21550, 50507
luaV_execute, 50507, 33742
luaV_execute, 50507, 1428
luaV_execute, 1428, 35600
luaV_execute, 21850, 62245
luaV_execute, 62245, 11193
luaV_execute, 62245, 42765
luaV_execute, 11193, 39590
luaV_execute, 42765, 39590
luaV_execute, 39590, 61419
luaV_execute, 35600, 61419
luaV_execute, 23839, 11662
luaV_execute, 23839, 55617
luaV_execute, 23839, 36859
luaV_execute, 55617, 14648
luaV_execute, 55617, 11662
luaV_execute, 14648, 10578
luaV_execute, 14648, 28434
luaV_execute, 10578, 39695
luaV_execute, 10578, 25375
luaV_execute, 28434, 25375
luaV_execute, 28434, 12220
luaV_execute, 12220, 25375
luaV_execute, 25375, 61419
luaV_execute, 36859, 22099
luaV_execute, 11662, 9253
luaV_execute, 11662, 40675
luaV_execute, 9253, 1680
luaV_execute, 40675, 47044
luaV_execute, 40675, 17870
luaV_execute, 47044, 42519
luaV_execute, 47044, 28875
luaV_execute, 42519, 28837
luaV_execute, 28875, 28837
luaV_execute, 28837, 44750
luaV_execute, 28837, 17870
luaV_execute, 44750, 49888
luaV_execute, 44750, 18612
luaV_execute, 49888, 1680
luaV_execute, 18612, 1680
luaV_execute, 1680, 22099
luaV_execute, 17870, 32880
luaV_execute, 22099, 14562
luaV_execute, 22099, 27282
luaV_execute, 14562, 43526
luaV_execute, 27282, 8742
luaV_execute, 27282, 44596
luaV_execute, 8742, 1086
luaV_execute, 44596, 47315
luaV_execute, 44596, 32976
luaV_execute, 47315, 38442
luaV_execute, 47315, 37639
luaV_execute, 38442, 49922
luaV_execute, 37639, 49922
luaV_execute, 49922, 28009
luaV_execute, 49922, 32976
luaV_execute, 28009, 53693
luaV_execute, 28009, 32141
luaV_execute, 53693, 1086
luaV_execute, 32141, 1086
luaV_execute, 1086, 43526
luaV_execute, 32976, 32880
luaV_execute, 43526, 61419
luaV_execute, 32880, 61419
luaV_execute, 15401, 32331
luaV_execute, 15401, 47564
luaV_execute, 15401, 24305
luaV_execute, 47564, 33328
luaV_execute, 47564, 32331
luaV_execute, 33328, 16091
luaV_execute, 33328, 26695
luaV_execute, 16091, 8766
luaV_execute, 16091, 32123
luaV_execute, 32123, 5205
luaV_execute, 26695, 62634
luaV_execute, 26695, 5205
luaV_execute, 62634, 5205
luaV_execute, 5205, 61419
luaV_execute, 24305, 1964
luaV_execute, 32331, 31407
luaV_execute, 32331, 41664
luaV_execute, 31407, 56206
luaV_execute, 41664, 36183
luaV_execute, 41664, 48518
luaV_execute, 36183, 49695
luaV_execute, 36183, 19744
luaV_execute, 49695, 50969
luaV_execute, 19744, 50969
luaV_execute, 50969, 42244
luaV_execute, 50969, 48518
luaV_execute, 42244, 58079
luaV_execute, 42244, 31150
luaV_execute, 58079, 56206
luaV_execute, 31150, 56206
luaV_execute, 56206, 1964
luaV_execute, 48518, 57586
luaV_execute, 1964, 28447
luaV_execute, 1964, 5188
luaV_execute, 28447, 12658
luaV_execute, 5188, 531
luaV_execute, 5188, 43662
luaV_execute, 531, 49550
luaV_execute, 43662, 5400
luaV_execute, 43662, 54815
luaV_execute, 5400, 30787
luaV_execute, 5400, 39445
luaV_execute, 30787, 45110
luaV_execute, 39445, 45110
luaV_execute, 45110, 14506
luaV_execute, 45110, 54815
luaV_execute, 14506, 60962
luaV_execute, 14506, 49305
luaV_execute, 60962, 49550
luaV_execute, 49305, 49550
luaV_execute, 49550, 12658
luaV_execute, 54815, 57586
luaV_execute, 12658, 61419
luaV_execute, 57586, 61419
luaV_execute, 17878, 21792
luaV_execute, 17878, 7713
luaV_execute, 21792, 49202
luaV_execute, 7713, 60585
luaV_execute, 7713, 54262
luaV_execute, 60585, 50839
luaV_execute, 54262, 5630
luaV_execute, 54262, 64415
luaV_execute, 5630, 42032
luaV_execute, 5630, 34459
luaV_execute, 42032, 38729
luaV_execute, 34459, 38729
luaV_execute, 38729, 52150
luaV_execute, 38729, 64415
luaV_execute, 52150, 40180
luaV_execute, 52150, 22125
luaV_execute, 40180, 50839
luaV_execute, 22125, 50839
luaV_execute, 50839, 49202
luaV_execute, 64415, 24012
luaV_execute, 49202, 12584
luaV_execute, 49202, 11426
luaV_execute, 12584, 31027
luaV_execute, 11426, 24611
luaV_execute, 11426, 56699
luaV_execute, 24611, 40747
luaV_execute, 56699, 4978
luaV_execute, 56699, 16132
luaV_execute, 4978, 20110
luaV_execute, 4978, 64939
luaV_execute, 20110, 55685
luaV_execute, 64939, 55685
luaV_execute, 55685, 18213
luaV_execute, 55685, 16132
luaV_execute, 18213, 17293
luaV_execute, 18213, 63034
luaV_execute, 17293, 40747
luaV_execute, 63034, 40747
luaV_execute, 40747, 31027
luaV_execute, 16132, 24012
luaV_execute, 31027, 61419
luaV_execute, 24012, 61419
luaV_execute, 5940, 36505
luaV_execute, 5940, 16239
luaV_execute, 5940, 5436
luaV_execute, 16239, 61419
luaV_execute, 5436, 50129
luaV_execute, 36505, 60511
luaV_execute, 36505, 42025
luaV_execute, 60511, 35995
luaV_execute, 42025, 52092
luaV_execute, 42025, 2890
luaV_execute, 52092, 11693
luaV_execute, 52092, 9756
luaV_execute, 11693, 5584
luaV_execute, 9756, 5584
luaV_execute, 5584, 34734
luaV_execute, 5584, 2890
luaV_execute, 34734, 18986
luaV_execute, 34734, 22705
luaV_execute, 18986, 35995
luaV_execute, 22705, 35995
luaV_execute, 35995, 50129
luaV_execute, 50129, 61419
luaV_execute, 2890, 61419
luaV_execute, 31067, 7899
luaV_execute, 31067, 59980
luaV_execute, 7899, 55715
luaV_execute, 59980, 33103
luaV_execute, 33103, 46105
luaV_execute, 33103, 20352
luaV_execute, 33103, 49150
luaV_execute, 20352, 51522
luaV_execute, 20352, 4505
luaV_execute, 4505, 51021
luaV_execute, 4505, 51522
luaV_execute, 51021, 3181
luaV_execute, 49150, 3181
luaV_execute, 46105, 22290
luaV_execute, 46105, 51522
luaV_execute, 22290, 57816
luaV_execute, 22290, 25248
luaV_execute, 57816, 10859
luaV_execute, 25248, 10859
luaV_execute, 10859, 33103
luaV_execute, 10859, 51522
luaV_execute, 3181, 55715
luaV_execute, 55715, 61419
luaV_execute, 51522, 61419
luaV_execute, 25201, 38290
luaV_execute, 25201, 9065
luaV_execute, 25201, 57750
luaV_execute, 57750, 9065
luaV_execute, 38290, 9065
luaV_execute, 9065, 61419
luaV_execute, 34909, 61419
luaV_execute, 15, 29769
luaV_execute, 15, 15636
luaV_execute, 29769, 15636
luaV_execute, 15636, 61419
luaV_execute, 38363, 13668
luaV_execute, 38363, 25641
luaV_execute, 25641, 13668
luaV_execute, 13668, 61419
luaV_execute, 45628, 19980
luaV_execute, 45628, 46596
luaV_execute, 46596, 65389
luaV_execute, 19980, 58022
luaV_execute, 19980, 54881
luaV_execute, 54881, 58022
luaV_execute, 58022, 65389
luaV_execute, 65389, 61419
luaV_execute, 34192, 31250
luaV_execute, 34192, 10017
luaV_execute, 10017, 14894
luaV_execute, 31250, 65321
luaV_execute, 31250, 56828
luaV_execute, 56828, 65321
luaV_execute, 65321, 14894
luaV_execute, 14894, 61419
luaV_execute, 31399, 18364
luaV_execute, 31399, 53349
luaV_execute, 53349, 47265
luaV_execute, 18364, 26008
luaV_execute, 18364, 42393
luaV_execute, 42393, 26008
luaV_execute, 26008, 47265
luaV_execute, 47265, 61419
luaV_execute, 60229, 24416
luaV_execute, 60229, 51956
luaV_execute, 51956, 21395
luaV_execute, 51956, 51158
luaV_execute, 51158, 37415
luaV_execute, 51158, 9889
luaV_execute, 37415, 21395
luaV_execute, 37415, 9889
luaV_execute, 24416, 9889
luaV_execute, 24416, 63072
luaV_execute, 63072, 26822
luaV_execute, 63072, 21395
luaV_execute, 26822, 9889
luaV_execute, 26822, 21395
luaV_execute, 21395, 61419
luaV_execute, 9889, 24010
luaV_execute, 9889, 42030
luaV_execute, 42030, 24010
luaV_execute, 24010, 61419
luaV_execute, 32792, 37785
luaV_execute, 32792, 31324
luaV_execute, 31324, 25025
luaV_execute, 31324, 40830
luaV_execute, 40830, 33102
luaV_execute, 40830, 10478
luaV_execute, 33102, 25025
luaV_execute, 33102, 10478
luaV_execute, 37785, 10478
luaV_execute, 37785, 59171
luaV_execute, 59171, 14974
luaV_execute, 59171, 25025
luaV_execute, 14974, 10478
luaV_execute, 14974, 25025
luaV_execute, 10478, 34285
luaV_execute, 10478, 64607
luaV_execute, 64607, 34285
luaV_execute, 34285, 25025
luaV_execute, 25025, 61419
luaV_execute, 50971, 17174
luaV_execute, 50971, 22180
luaV_execute, 22180, 17174
luaV_execute, 17174, 13517
luaV_execute, 17174, 36612
luaV_execute, 36612, 18023
luaV_execute, 36612, 28517
luaV_execute, 28517, 18023
luaV_execute, 18023, 61419
luaV_execute, 13517, 291
luaV_execute, 51637, 8879
luaV_execute, 51637, 15878
luaV_execute, 15878, 8879
luaV_execute, 8879, 54306
luaV_execute, 8879, 48092
luaV_execute, 48092, 61419
luaV_execute, 54306, 10707
luaV_execute, 54306, 27930
luaV_execute, 10707, 27930
luaV_execute, 27930, 49985
luaV_execute, 27930, 40565
luaV_execute, 49985, 49985
luaV_execute, 49985, 40565
luaV_execute, 40565, 291
luaV_execute, 33840, 30745
luaV_execute, 33840, 61419
luaV_execute, 30745, 61419
luaV_execute, 61419, 5690
luaV_execute, 61419, 26664
luaV_execute, 26664, 18705
luaV_execute, 5690, 18705
luaV_execute, 18705, 38005
luaV_execute, 18705, 10934
luaV_execute, 38005, 291
luaV_execute, 38005, 28693
luaV_execute, 291, 7982
luaV_execute, 28693, 291
luaV_execute, 63396, 33025
luaV_execute, 63396, 19634
luaV_execute, 33025, 4285
luaV_execute, 33025, 40008
luaV_execute, 4285, 61419
luaV_execute, 4285, 23189
luaV_execute, 40008, 61419
luaV_execute, 40008, 23189
luaV_execute, 23189, 61419
luaV_execute, 19634, 59877
luaV_execute, 19634, 60963
luaV_execute, 59877, 61419
luaV_execute, 59877, 38954
luaV_execute, 60963, 61419
luaV_execute, 60963, 38954
luaV_execute, 38954, 61419
luaV_execute, 26908, 15710
luaV_execute, 26908, 3808
luaV_execute, 15710, 44769
luaV_execute, 15710, 3808
luaV_execute, 44769, 51805
luaV_execute, 51805, 13629
luaV_execute, 51805, 39222
luaV_execute, 51805, 61268
luaV_execute, 39222, 5586
luaV_execute, 39222, 57703
luaV_execute, 5586, 28361
luaV_execute, 61268, 28361
luaV_execute, 13629, 55613
luaV_execute, 13629, 57703
luaV_execute, 55613, 6953
luaV_execute, 55613, 50129
luaV_execute, 6953, 54542
luaV_execute, 50129, 54542
luaV_execute, 54542, 51805
luaV_execute, 54542, 57703
luaV_execute, 28361, 19408
luaV_execute, 57703, 8434
luaV_execute, 57703, 15099
luaV_execute, 8434, 36820
luaV_execute, 15099, 31203
luaV_execute, 15099, 2404
luaV_execute, 31203, 56872
luaV_execute, 2404, 65225
luaV_execute, 2404, 23435
luaV_execute, 65225, 27675
luaV_execute, 65225, 40771
luaV_execute, 27675, 41291
luaV_execute, 40771, 41291
luaV_execute, 41291, 36709
luaV_execute, 41291, 23435
luaV_execute, 36709, 65260
luaV_execute, 36709, 7299
luaV_execute, 65260, 56872
luaV_execute, 7299, 56872
luaV_execute, 56872, 36820
luaV_execute, 36820, 61656
luaV_execute, 36820, 29226
luaV_execute, 61656, 7467
luaV_execute, 61656, 19408
luaV_execute, 29226, 7467
luaV_execute, 29226, 19408
luaV_execute, 23435, 3808
luaV_execute, 19408, 7467
luaV_execute, 7467, 4806
luaV_execute, 3808, 61048
luaV_execute, 3808, 64082
luaV_execute, 61048, 49585
luaV_execute, 64082, 42409
luaV_execute, 64082, 56449
luaV_execute, 42409, 56684
luaV_execute, 56449, 10284
luaV_execute, 56449, 27439
luaV_execute, 10284, 7549
luaV_execute, 10284, 54409
luaV_execute, 7549, 16685
luaV_execute, 54409, 16685
luaV_execute, 16685, 6740
luaV_execute, 16685, 27439
luaV_execute, 6740, 26087
luaV_execute, 6740, 53152
luaV_execute, 26087, 56684
luaV_execute, 53152, 56684
luaV_execute, 56684, 49585
luaV_execute, 49585, 61168
luaV_execute, 49585, 44778
luaV_execute, 61168, 40720
luaV_execute, 44778, 56892
luaV_execute, 44778, 14332
luaV_execute, 56892, 18392
luaV_execute, 14332, 17105
luaV_execute, 14332, 17815
luaV_execute, 17105, 51930
luaV_execute, 17105, 32868
luaV_execute, 51930, 37397
luaV_execute, 32868, 37397
luaV_execute, 37397, 8791
luaV_execute, 37397, 17815
luaV_execute, 8791, 1950
luaV_execute, 8791, 42053
luaV_execute, 1950, 18392
luaV_execute, 42053, 18392
luaV_execute, 18392, 40720
luaV_execute, 40720, 20098
luaV_execute, 40720, 14625
luaV_execute, 20098, 48281
luaV_execute, 14625, 12627
luaV_execute, 14625, 6875
luaV_execute, 12627, 42408
luaV_execute, 6875, 37192
luaV_execute, 6875, 45513
luaV_execute, 37192, 37749
luaV_execute, 37192, 26452
luaV_execute, 37749, 16151
luaV_execute, 26452, 16151
luaV_execute, 16151, 18086
luaV_execute, 16151, 45513
luaV_execute, 18086, 15525
luaV_execute, 18086, 42095
luaV_execute, 15525, 42408
luaV_execute, 42095, 42408
luaV_execute, 42408, 48281
luaV_execute, 48281, 4806
luaV_execute, 4806, 61419
luaV_execute, 43047, 48235
luaV_execute, 48235, 61419
luaV_execute, 48235, 40634
luaV_execute, 40634, 61419
luaV_execute, 51539, 64846
luaV_execute, 51539, 3180
luaV_execute, 64846, 3180
luaV_execute, 3180, 11957
luaV_execute, 3180, 61202
luaV_execute, 11957, 61202
luaV_execute, 61202, 23417
luaV_execute, 61202, 16120
luaV_execute, 23417, 16120
luaV_execute, 16120, 40629
luaV_execute, 16120, 42476
luaV_execute, 40629, 56418
luaV_execute, 56418, 17503
luaV_execute, 56418, 11292
luaV_execute, 11292, 17503
luaV_execute, 11292, 12766
luaV_execute, 12766, 17503
luaV_execute, 12766, 34188
luaV_execute, 34188, 17503
luaV_execute, 17503, 56418
luaV_execute, 17503, 42476
luaV_execute, 42476, 61419
luaV_execute, 3835, 41316
luaV_execute, 3835, 61065
luaV_execute, 61065, 13034
luaV_execute, 61065, 36815
luaV_execute, 65084, 36815
luaV_execute, 65084, 13034
luaV_execute, 13034, 32362
luaV_execute, 13034, 31898
luaV_execute, 31898, 53099
luaV_execute, 32362, 53099
luaV_execute, 53099, 65084
luaV_execute, 53099, 41316
luaV_execute, 41316, 29186
luaV_execute, 41316, 1694
luaV_execute, 29186, 33910
luaV_execute, 29186, 61899
luaV_execute, 61899, 56464
luaV_execute, 33910, 56464
luaV_execute, 56464, 1694
luaV_execute, 56464, 29186
luaV_execute, 1694, 64249
luaV_execute, 1694, 19400
luaV_execute, 64249, 19400
luaV_execute, 36815, 19400
luaV_execute, 19400, 58765
luaV_execute, 19400, 61419
luaV_execute, 58765, 61419
luaV_execute, 30489, 9768
luaV_execute, 30489, 3694
luaV_execute, 9768, 2978
luaV_execute, 9768, 61042
luaV_execute, 61042, 2978
luaV_execute, 2978, 3694
luaV_execute, 3694, 18112
luaV_execute, 3694, 59760
luaV_execute, 18112, 1831
luaV_execute, 59760, 63780
luaV_execute, 59760, 61419
luaV_execute, 61419, 54624
luaV_execute, 1831, 59760
luaV_execute, 1831, 1831
luaV_execute, 63780, 61419
luaV_execute, 63780, 63780
