luaU_dump, 38159, 10279
luaU_dump, 38159, 19941
luaU_dump, 19941, 57739
luaU_dump, 10279, 292
luaU_dump, 10279, 14254
luaU_dump, 14254, 30950
luaU_dump, 292, 57739
luaU_dump, 57739, 27461
luaU_dump, 57739, 30950
luaU_dump, 27461, 26312
luaU_dump, 30950, 26312
luaU_dump, 26312, 26069
luaU_dump, 26312, 32198
luaU_dump, 26069, 43231
luaU_dump, 32198, 43231
luaU_dump, 43231, 12089
luaU_dump, 43231, 28034
luaU_dump, 12089, 63104
luaU_dump, 28034, 63104
luaU_dump, 63104, 37312
luaU_dump, 63104, 22589
luaU_dump, 37312, 31164
luaU_dump, 22589, 31164
luaU_dump, 31164, 9859
luaU_dump, 31164, 1541
luaU_dump, 9859, 32992
luaU_dump, 1541, 32992
luaU_dump, 32992, 43945
luaU_dump, 32992, 52896
luaU_dump, 43945, 60803
luaU_dump, 52896, 60803
luaU_dump, 60803, 11399
luaU_dump, 60803, 19113
luaU_dump, 11399, 17307
luaU_dump, 19113, 17307
luaU_dump, 17307, 26208
luaU_dump, 17307, 44079
luaU_dump, 26208, 42521
luaU_dump, 44079, 42521
luaU_dump, 42521, 51657
luaU_dump, 42521, 11839
luaU_dump, 51657, 11839
DumpFunction, 6015, 41579
DumpFunction, 6015, 22887
DumpFunction, 41579, 22887
DumpFunction, 41579, 50797
DumpFunction, 22887, 26026
DumpFunction, 22887, 36865
DumpFunction, 26026, 36865
DumpFunction, 36865, 13795
DumpFunction, 50797, 13795
DumpFunction, 13795, 37897
DumpFunction, 13795, 1864
DumpFunction, 37897, 1864
DumpFunction, 1864, 3256
DumpFunction, 1864, 53818
DumpFunction, 3256, 48568
DumpFunction, 53818, 48568
DumpFunction, 48568, 18171
DumpFunction, 48568, 8473
DumpFunction, 18171, 39851
DumpFunction, 8473, 39851
DumpFunction, 39851, 13002
DumpFunction, 39851, 63317
DumpFunction, 13002, 61741
DumpFunction, 63317, 61741
DumpFunction, 61741, 32166
DumpFunction, 61741, 11011
DumpFunction, 32166, 26667
DumpFunction, 11011, 26667
DumpFunction, 26667, 27720
DumpFunction, 26667, 42336
DumpFunction, 27720, 42336
DumpFunction, 42336, 57091
DumpFunction, 42336, 122
DumpFunction, 122, 57091
DumpFunction, 57091, 63372
DumpFunction, 57091, 32843
DumpFunction, 63372, 32843
DumpFunction, 32843, 12198
DumpFunction, 32843, 887
DumpFunction, 12198, 6422
DumpFunction, 6422, 55306
DumpFunction, 6422, 40985
DumpFunction, 55306, 40985
DumpFunction, 40985, 26672
DumpFunction, 40985, 50136
DumpFunction, 40985, 26604
DumpFunction, 40985, 45041
DumpFunction, 40985, 46635
DumpFunction, 40985, 50136
DumpFunction, 26604, 57354
DumpFunction, 26604, 59434
DumpFunction, 57354, 59434
DumpFunction, 59434, 26672
DumpFunction, 45041, 27479
DumpFunction, 45041, 1182
DumpFunction, 27479, 1182
DumpFunction, 1182, 26672
DumpFunction, 46635, 55280
DumpFunction, 46635, 22183
DumpFunction, 55280, 22183
DumpFunction, 22183, 26672
DumpFunction, 50136, 26672
DumpFunction, 26672, 887
DumpFunction, 26672, 6422
DumpFunction, 887, 2921
DumpFunction, 887, 59542
DumpFunction, 2921, 59542
DumpFunction, 59542, 53584
DumpFunction, 59542, 23139
DumpFunction, 53584, 60999
DumpFunction, 60999, 8221
DumpFunction, 60999, 37462
DumpFunction, 8221, 37462
DumpFunction, 37462, 11265
DumpFunction, 37462, 7029
DumpFunction, 11265, 7029
DumpFunction, 7029, 23139
DumpFunction, 7029, 60999
DumpFunction, 23139, 28407
DumpFunction, 23139, 51729
DumpFunction, 28407, 51729
DumpFunction, 51729, 50996
DumpFunction, 51729, 28395
DumpFunction, 50996, 64986
DumpFunction, 64986, 28395
DumpFunction, 64986, 64986
DumpFunction, 28395, 53039
DumpFunction, 28395, 64993
DumpFunction, 53039, 64993
DumpFunction, 64993, 36593
DumpFunction, 64993, 48651
DumpFunction, 36593, 48651
DumpFunction, 48651, 39293
DumpFunction, 48651, 28455
DumpFunction, 28455, 39293
DumpFunction, 39293, 31396
DumpFunction, 39293, 38796
DumpFunction, 31396, 38796
DumpFunction, 38796, 28186
DumpFunction, 38796, 15870
DumpFunction, 28186, 15870
DumpFunction, 15870, 54036
DumpFunction, 15870, 40748
DumpFunction, 54036, 55565
DumpFunction, 55565, 62429
DumpFunction, 55565, 48606
DumpFunction, 62429, 48606
DumpFunction, 48606, 11086
DumpFunction, 48606, 22466
DumpFunction, 11086, 22466
DumpFunction, 22466, 40748
DumpFunction, 22466, 55565
DumpFunction, 40748, 54550
DumpFunction, 40748, 15387
DumpFunction, 54550, 15387
DumpFunction, 15387, 36446
DumpFunction, 15387, 16244
DumpFunction, 36446, 16244
DumpFunction, 16244, 14982
DumpFunction, 16244, 24767
DumpFunction, 14982, 21423
DumpFunction, 21423, 24767
DumpFunction, 21423, 21423
DumpString, 34067, 35400
DumpString, 34067, 918
DumpString, 35400, 19379
DumpString, 35400, 62797
DumpString, 19379, 62797
DumpString, 62797, 26255
DumpString, 918, 12617
DumpString, 918, 57332
DumpString, 12617, 10594
DumpString, 57332, 10594
DumpString, 10594, 57007
DumpString, 10594, 50700
DumpString, 57007, 44350
DumpString, 57007, 37273
DumpString, 44350, 37273
DumpString, 37273, 30962
DumpString, 50700, 35623
DumpString, 50700, 25465
DumpString, 25465, 30962
DumpString, 35623, 53925
DumpString, 35623, 30962
DumpString, 53925, 30962
DumpString, 30962, 45024
DumpString, 30962, 35491
DumpString, 35491, 45024
DumpString, 45024, 26255
