luaZ_fill, 9200, 63972
luaZ_fill, 9200, 51106
luaZ_fill, 51106, 63972
luaZ_fill, 51106, 61617
luaZ_fill, 61617, 63972
luaZ_read, 22783, 36510
luaZ_read, 22783, 7834
luaZ_read, 7834, 9114
luaZ_read, 9114, 34323
luaZ_read, 9114, 2460
luaZ_read, 34323, 2762
luaZ_read, 34323, 30899
luaZ_read, 30899, 2762
luaZ_read, 30899, 61756
luaZ_read, 2762, 36510
luaZ_read, 61756, 2460
luaZ_read, 2460, 36510
luaZ_read, 2460, 9114
