luaF_newLclosure, 61864, 33553
luaF_newLclosure, 61864, 59702
luaF_newLclosure, 59702, 33553
luaF_initupvals, 2668, 24713
luaF_initupvals, 2668, 17799
luaF_initupvals, 17799, 17799
luaF_initupvals, 17799, 24713
luaF_findupval, 32321, 15037
luaF_findupval, 32321, 16678
luaF_findupval, 16678, 15037
luaF_findupval, 16678, 20274
luaF_findupval, 46973, 32860
luaF_findupval, 46973, 20274
luaF_findupval, 20274, 26020
luaF_findupval, 20274, 52528
luaF_findupval, 52528, 63663
luaF_findupval, 52528, 46973
luaF_findupval, 63663, 15037
luaF_findupval, 32860, 15037
luaF_findupval, 15037, 39574
luaF_findupval, 15037, 26020
luaF_findupval, 39574, 26020
luaF_close, 14338, 14614
luaF_close, 14338, 57306
luaF_close, 57306, 4851
luaF_close, 4851, 14614
luaF_close, 4851, 32691
luaF_close, 32691, 17214
luaF_close, 32691, 57513
luaF_close, 17214, 4975
luaF_close, 57513, 4975
luaF_close, 57513, 44604
luaF_close, 44604, 4975
luaF_close, 4975, 14614
luaF_close, 4975, 4851
luaF_getlocalname, 54876, 3903
luaF_getlocalname, 54876, 51
luaF_getlocalname, 3903, 37344
luaF_getlocalname, 37344, 51
luaF_getlocalname, 37344, 54514
luaF_getlocalname, 54514, 13843
luaF_getlocalname, 54514, 51207
luaF_getlocalname, 13843, 18015
luaF_getlocalname, 13843, 51207
luaF_getlocalname, 18015, 51
luaF_getlocalname, 51207, 37344
luaF_getlocalname, 51207, 51
