db_debug, 16181, 43957
db_debug, 16181, 37013
db_debug, 37013, 43957
db_debug, 37013, 21528
db_debug, 21528, 29263
db_debug, 21528, 39828
db_debug, 29263, 39739
db_debug, 29263, 39828
db_debug, 39828, 39739
db_debug, 39739, 43957
db_debug, 39739, 37013
db_getuservalue, 13746, 46176
db_getuservalue, 13746, 64092
db_getuservalue, 64092, 8676
db_getuservalue, 46176, 8676
db_gethook, 33050, 3245
db_gethook, 33050, 2026
db_gethook, 3245, 2026
db_gethook, 2026, 39798
db_gethook, 2026, 29882
db_gethook, 39798, 34961
db_gethook, 29882, 23264
db_gethook, 29882, 12042
db_gethook, 12042, 34961
db_gethook, 23264, 58743
db_gethook, 23264, 26219
db_gethook, 26219, 42438
db_gethook, 26219, 58743
db_gethook, 42438, 58743
db_gethook, 58743, 34961
db_gethook, 34961, 33177
db_gethook, 34961, 27718
db_gethook, 27718, 33177
db_gethook, 33177, 27244
db_gethook, 33177, 54635
db_gethook, 54635, 27244
db_gethook, 27244, 23474
db_gethook, 27244, 11305
db_gethook, 11305, 23474
db_getinfo, 24914, 50248
db_getinfo, 24914, 48895
db_getinfo, 48895, 30325
db_getinfo, 50248, 30325
db_getinfo, 50248, 55155
db_getinfo, 55155, 14602
db_getinfo, 55155, 30325
db_getinfo, 14602, 30325
db_getinfo, 30325, 65411
db_getinfo, 30325, 41332
db_getinfo, 65411, 30247
db_getinfo, 41332, 23868
db_getinfo, 41332, 30247
db_getinfo, 23868, 7570
db_getinfo, 30247, 59465
db_getinfo, 30247, 12324
db_getinfo, 59465, 7570
db_getinfo, 12324, 46341
db_getinfo, 12324, 11705
db_getinfo, 11705, 46341
db_getinfo, 46341, 37561
db_getinfo, 46341, 34327
db_getinfo, 34327, 37561
db_getinfo, 37561, 58417
db_getinfo, 37561, 29779
db_getinfo, 29779, 58417
db_getinfo, 58417, 11246
db_getinfo, 58417, 34162
db_getinfo, 34162, 11246
db_getinfo, 11246, 24049
db_getinfo, 11246, 60920
db_getinfo, 60920, 24049
db_getinfo, 24049, 16476
db_getinfo, 24049, 48798
db_getinfo, 48798, 53877
db_getinfo, 48798, 10603
db_getinfo, 53877, 58717
db_getinfo, 10603, 58717
db_getinfo, 58717, 16476
db_getinfo, 16476, 7570
db_getinfo, 16476, 53097
db_getinfo, 53097, 45074
db_getinfo, 53097, 51192
db_getinfo, 45074, 38181
db_getinfo, 51192, 38181
db_getinfo, 38181, 7570
db_getlocal, 44137, 16916
db_getlocal, 44137, 48487
db_getlocal, 16916, 48487
db_getlocal, 48487, 61528
db_getlocal, 48487, 4197
db_getlocal, 61528, 56487
db_getlocal, 4197, 39130
db_getlocal, 4197, 19887
db_getlocal, 39130, 56487
db_getlocal, 19887, 35023
db_getlocal, 19887, 60125
db_getlocal, 60125, 46060
db_getlocal, 60125, 35023
db_getlocal, 46060, 35023
db_getlocal, 35023, 25182
db_getlocal, 35023, 58812
db_getlocal, 58812, 56487
db_getlocal, 25182, 56487
db_getmetatable, 34055, 31557
db_getmetatable, 34055, 60236
db_getmetatable, 31557, 60236
db_getupvalue, 25421, 21523
db_getupvalue, 25421, 11099
db_getupvalue, 11099, 21523
db_upvaluejoin, 41455, 2755
db_upvaluejoin, 41455, 22589
db_upvaluejoin, 2755, 22589
db_upvaluejoin, 22589, 26297
db_upvaluejoin, 22589, 50651
db_upvaluejoin, 26297, 50651
db_upvaluejoin, 50651, 18369
db_upvaluejoin, 50651, 115
db_upvaluejoin, 115, 18369
db_upvaluejoin, 18369, 36136
db_upvaluejoin, 18369, 16741
db_upvaluejoin, 16741, 36136
db_upvalueid, 38452, 63205
db_upvalueid, 38452, 17312
db_upvalueid, 63205, 17312
db_sethook, 35556, 64147
db_sethook, 35556, 13805
db_sethook, 64147, 13805
db_sethook, 13805, 52197
db_sethook, 13805, 35873
db_sethook, 52197, 13905
db_sethook, 35873, 13905
db_sethook, 13905, 12364
db_sethook, 13905, 57955
db_sethook, 12364, 57955
db_sethook, 57955, 20108
db_sethook, 57955, 42947
db_sethook, 42947, 37777
db_sethook, 42947, 20108
db_sethook, 37777, 20108
db_setlocal, 63108, 13032
db_setlocal, 63108, 63034
db_setlocal, 13032, 63034
db_setlocal, 63034, 53146
db_setlocal, 63034, 7542
db_setlocal, 53146, 13192
db_setlocal, 7542, 46220
db_setlocal, 7542, 48954
db_setlocal, 48954, 14710
db_setlocal, 48954, 46220
db_setlocal, 14710, 46220
db_setlocal, 46220, 13784
db_setlocal, 46220, 10621
db_setlocal, 13784, 10621
db_setlocal, 10621, 13192
db_setmetatable, 26709, 35465
db_setmetatable, 26709, 16400
db_setmetatable, 26709, 16400
db_setmetatable, 35465, 16400
db_setupvalue, 63808, 29534
db_setupvalue, 63808, 16083
db_setupvalue, 16083, 29534
db_traceback, 56621, 59461
db_traceback, 56621, 11941
db_traceback, 59461, 11941
db_traceback, 11941, 1862
db_traceback, 11941, 58120
db_traceback, 1862, 58120
db_traceback, 1862, 7621
db_traceback, 7621, 17943
db_traceback, 58120, 17943
hookf, 4862, 34058
hookf, 4862, 29186
hookf, 34058, 51550
hookf, 34058, 23667
hookf, 51550, 64888
hookf, 23667, 64888
hookf, 64888, 29186
