luaB_coresume, 55036, 10091
luaB_coresume, 55036, 32289
luaB_coresume, 10091, 32289
luaB_coresume, 32289, 14233
luaB_coresume, 32289, 7906
luaB_coresume, 14233, 3602
luaB_coresume, 7906, 3602
luaB_costatus, 13135, 12382
luaB_costatus, 13135, 30177
luaB_costatus, 12382, 30177
luaB_costatus, 30177, 13520
luaB_costatus, 30177, 61541
luaB_costatus, 13520, 60619
luaB_costatus, 61541, 30780
luaB_costatus, 61541, 19591
luaB_costatus, 61541, 16068
luaB_costatus, 19591, 60619
luaB_costatus, 16068, 21169
luaB_costatus, 16068, 57353
luaB_costatus, 57353, 21169
luaB_costatus, 21169, 60619
luaB_costatus, 30780, 60619
auxresume, 8492, 56665
auxresume, 8492, 33211
auxresume, 56665, 21146
auxresume, 33211, 55813
auxresume, 33211, 11972
auxresume, 55813, 29487
auxresume, 55813, 11972
auxresume, 29487, 21146
auxresume, 11972, 29125
auxresume, 11972, 25829
auxresume, 29125, 48011
auxresume, 29125, 60844
auxresume, 48011, 21146
auxresume, 60844, 21146
auxresume, 25829, 21146
luaB_auxwrap, 47739, 54142
luaB_auxwrap, 47739, 32292
luaB_auxwrap, 54142, 25546
luaB_auxwrap, 54142, 4249
luaB_auxwrap, 25546, 4249
luaB_auxwrap, 4249, 32292
