luaH_next, 27927, 5595
luaH_next, 27927, 50556
luaH_next, 27927, 5931
luaH_next, 5931, 5595
luaH_next, 5931, 65079
luaH_next, 65079, 5595
luaH_next, 65079, 50556
luaH_next, 5595, 6153
luaH_next, 5595, 62167
luaH_next, 6153, 60914
luaH_next, 60914, 51776
luaH_next, 60914, 11324
luaH_next, 51776, 11324
luaH_next, 51776, 62638
luaH_next, 62638, 62167
luaH_next, 62638, 11324
luaH_next, 62167, 50556
luaH_next, 11324, 30763
luaH_next, 11324, 21881
luaH_next, 21881, 60914
luaH_next, 21881, 62167
luaH_next, 50556, 46727
luaH_next, 46727, 43083
luaH_next, 46727, 7022
luaH_next, 7022, 46727
luaH_next, 7022, 51506
luaH_next, 51506, 31465
luaH_next, 43083, 51363
luaH_next, 43083, 31465
luaH_next, 51363, 34397
luaH_next, 34397, 35792
luaH_next, 34397, 7535
luaH_next, 7535, 31465
luaH_next, 35792, 34397
luaH_next, 35792, 31465
luaH_resize, 46614, 27150
luaH_resize, 46614, 59707
luaH_resize, 59707, 27150
luaH_resize, 27150, 1478
luaH_resize, 27150, 19522
luaH_resize, 1478, 13251
luaH_resize, 1478, 51015
luaH_resize, 51015, 43086
luaH_resize, 51015, 21256
luaH_resize, 43086, 29437
luaH_resize, 29437, 21256
luaH_resize, 29437, 29437
luaH_resize, 21256, 19522
luaH_resize, 19522, 41431
luaH_resize, 19522, 7309
luaH_resize, 41431, 62307
luaH_resize, 41431, 51836
luaH_resize, 62307, 16721
luaH_resize, 16721, 51880
luaH_resize, 16721, 54596
luaH_resize, 51880, 2956
luaH_resize, 54596, 11217
luaH_resize, 54596, 10667
luaH_resize, 11217, 48432
luaH_resize, 10667, 54263
luaH_resize, 54263, 30746
luaH_resize, 54263, 250
luaH_resize, 30746, 35505
luaH_resize, 30746, 250
luaH_resize, 35505, 48432
luaH_resize, 250, 63164
luaH_resize, 250, 54263
luaH_resize, 48432, 63164
luaH_resize, 48432, 45094
luaH_resize, 63164, 45094
luaH_resize, 45094, 2956
luaH_resize, 2956, 22500
luaH_resize, 2956, 16721
luaH_resize, 22500, 28575
luaH_resize, 22500, 27818
luaH_resize, 27818, 51836
luaH_resize, 51836, 27947
luaH_resize, 51836, 52957
luaH_resize, 27947, 4396
luaH_resize, 27947, 47120
luaH_resize, 47120, 24128
luaH_resize, 47120, 11996
luaH_resize, 24128, 11996
luaH_resize, 11996, 4396
luaH_resize, 4396, 27947
luaH_resize, 4396, 14834
luaH_resize, 14834, 58968
luaH_resize, 14834, 52957
luaH_resize, 58968, 52957
setarrayvector, 44771, 46016
setarrayvector, 44771, 2200
setarrayvector, 2200, 11198
setarrayvector, 2200, 43973
setarrayvector, 11198, 27824
setarrayvector, 27824, 43973
setarrayvector, 27824, 27824
luaH_setint, 4268, 5633
luaH_setint, 4268, 21109
luaH_setint, 5633, 7001
luaH_setint, 21109, 43639
luaH_setint, 43639, 42618
luaH_setint, 43639, 22401
luaH_setint, 42618, 10312
luaH_setint, 42618, 22401
luaH_setint, 10312, 7001
luaH_setint, 22401, 45608
luaH_setint, 22401, 43639
luaH_setint, 7001, 45608
luaH_setint, 7001, 60408
luaH_setint, 45608, 60408
luaH_set, 10566, 9525
luaH_set, 10566, 21773
luaH_set, 9525, 21773
luaH_resizearray, 61537, 30483
luaH_resizearray, 61537, 27456
luaH_resizearray, 27456, 30483
setnodevector, 17577, 343
setnodevector, 17577, 51694
setnodevector, 343, 2349
setnodevector, 51694, 43717
setnodevector, 51694, 34877
setnodevector, 34877, 214
setnodevector, 34877, 10405
setnodevector, 10405, 28115
setnodevector, 28115, 6374
setnodevector, 28115, 28115
setnodevector, 6374, 2349
luaH_free, 60446, 24333
luaH_free, 60446, 53250
luaH_free, 53250, 24333
luaH_newkey, 6446, 38917
luaH_newkey, 6446, 46895
luaH_newkey, 6446, 25398
luaH_newkey, 25398, 60154
luaH_newkey, 25398, 22514
luaH_newkey, 22514, 5142
luaH_newkey, 60154, 5142
luaH_newkey, 60154, 3166
luaH_newkey, 5142, 38917
luaH_newkey, 38917, 14386
luaH_newkey, 38917, 51178
luaH_newkey, 14386, 51178
luaH_newkey, 14386, 57494
luaH_newkey, 51178, 15536
luaH_newkey, 51178, 54599
luaH_newkey, 54599, 15646
luaH_newkey, 15646, 7917
luaH_newkey, 15646, 15536
luaH_newkey, 7917, 14510
luaH_newkey, 7917, 15646
luaH_newkey, 15536, 1468
luaH_newkey, 1468, 10801
luaH_newkey, 1468, 29150
luaH_newkey, 10801, 43027
luaH_newkey, 10801, 29150
luaH_newkey, 29150, 14753
luaH_newkey, 29150, 11840
luaH_newkey, 11840, 56634
luaH_newkey, 56634, 14753
luaH_newkey, 56634, 56634
luaH_newkey, 14753, 43027
luaH_newkey, 14753, 1468
luaH_newkey, 43027, 24051
luaH_newkey, 24051, 31186
luaH_newkey, 24051, 55963
luaH_newkey, 55963, 53526
luaH_newkey, 55963, 47314
luaH_newkey, 53526, 47314
luaH_newkey, 53526, 46755
luaH_newkey, 46755, 47314
luaH_newkey, 47314, 31186
luaH_newkey, 31186, 27231
luaH_newkey, 31186, 24051
luaH_newkey, 27231, 7981
luaH_newkey, 27231, 17101
luaH_newkey, 7981, 17101
luaH_newkey, 7981, 34734
luaH_newkey, 34734, 17101
luaH_newkey, 17101, 17363
luaH_newkey, 17363, 37696
luaH_newkey, 17363, 35264
luaH_newkey, 37696, 35264
luaH_newkey, 37696, 17363
luaH_newkey, 35264, 63559
luaH_newkey, 35264, 5749
luaH_newkey, 63559, 5749
luaH_newkey, 14510, 50844
luaH_newkey, 14510, 2401
luaH_newkey, 2401, 23684
luaH_newkey, 2401, 2401
luaH_newkey, 23684, 63177
luaH_newkey, 23684, 35994
luaH_newkey, 35994, 63177
luaH_newkey, 63177, 57494
luaH_newkey, 50844, 53031
luaH_newkey, 50844, 42379
luaH_newkey, 53031, 55597
luaH_newkey, 42379, 55597
luaH_newkey, 55597, 57494
luaH_newkey, 57494, 40841
luaH_newkey, 57494, 59809
luaH_newkey, 59809, 40841
luaH_newkey, 59809, 4794
luaH_newkey, 4794, 40841
luaH_newkey, 4794, 55311
luaH_newkey, 55311, 40841
luaH_newkey, 40841, 5749
mainposition, 9520, 860
mainposition, 9520, 14378
mainposition, 9520, 58821
mainposition, 9520, 46492
mainposition, 9520, 47345
mainposition, 9520, 51540
mainposition, 9520, 48715
mainposition, 9520, 9013
mainposition, 14378, 49733
mainposition, 58821, 4749
mainposition, 58821, 49738
mainposition, 4749, 49738
mainposition, 49738, 49733
mainposition, 46492, 49733
mainposition, 47345, 49733
mainposition, 51540, 49733
mainposition, 48715, 49733
mainposition, 9013, 49733
mainposition, 860, 49733
luaH_getint, 14924, 48145
luaH_getint, 14924, 64547
luaH_getint, 48145, 31184
luaH_getint, 64547, 29093
luaH_getint, 29093, 8619
luaH_getint, 29093, 15998
luaH_getint, 8619, 20453
luaH_getint, 8619, 15998
luaH_getint, 20453, 31184
luaH_getint, 15998, 31184
luaH_getint, 15998, 29093
luaH_getshortstr, 27593, 35246
luaH_getshortstr, 35246, 46128
luaH_getshortstr, 35246, 62851
luaH_getshortstr, 46128, 33591
luaH_getshortstr, 46128, 62851
luaH_getshortstr, 33591, 4445
luaH_getshortstr, 62851, 4445
luaH_getshortstr, 62851, 35246
luaH_getstr, 45892, 3830
luaH_getstr, 45892, 58073
luaH_getstr, 3830, 28150
luaH_getstr, 28150, 51045
luaH_getstr, 28150, 35692
luaH_getstr, 51045, 40334
luaH_getstr, 51045, 35692
luaH_getstr, 40334, 52807
luaH_getstr, 35692, 52807
luaH_getstr, 35692, 28150
luaH_getstr, 58073, 50858
luaH_getstr, 50858, 8736
luaH_getstr, 50858, 15812
luaH_getstr, 15812, 28646
luaH_getstr, 8736, 28646
luaH_getstr, 8736, 50858
luaH_getstr, 28646, 52807
luaH_get, 65233, 29640
luaH_get, 65233, 38546
luaH_get, 65233, 50994
luaH_get, 65233, 18405
luaH_get, 65233, 41391
luaH_get, 38546, 63468
luaH_get, 63468, 60724
luaH_get, 63468, 39104
luaH_get, 60724, 31633
luaH_get, 60724, 39104
luaH_get, 31633, 18405
luaH_get, 39104, 18405
luaH_get, 39104, 63468
luaH_get, 50994, 21408
luaH_get, 50994, 39215
luaH_get, 21408, 18405
luaH_get, 39215, 9210
luaH_get, 9210, 47710
luaH_get, 9210, 11038
luaH_get, 47710, 40288
luaH_get, 47710, 11038
luaH_get, 40288, 18405
luaH_get, 11038, 18405
luaH_get, 11038, 9210
luaH_get, 41391, 23927
luaH_get, 41391, 27472
luaH_get, 27472, 48923
luaH_get, 27472, 49526
luaH_get, 48923, 25270
luaH_get, 49526, 24182
luaH_get, 24182, 64925
luaH_get, 24182, 18389
luaH_get, 64925, 25746
luaH_get, 64925, 18389
luaH_get, 25746, 25270
luaH_get, 18389, 25270
luaH_get, 18389, 24182
luaH_get, 25270, 18405
luaH_get, 23927, 29640
luaH_get, 29640, 38244
luaH_get, 38244, 33382
luaH_get, 38244, 29358
luaH_get, 29358, 18405
luaH_get, 33382, 18405
luaH_get, 33382, 38244
luaH_getn, 53136, 54371
luaH_getn, 53136, 18568
luaH_getn, 18568, 22923
luaH_getn, 18568, 54371
luaH_getn, 22923, 42241
luaH_getn, 22923, 23890
luaH_getn, 42241, 42241
luaH_getn, 42241, 23890
luaH_getn, 23890, 38185
luaH_getn, 54371, 38185
luaH_getn, 54371, 20259
luaH_getn, 20259, 54302
luaH_getn, 54302, 13895
luaH_getn, 54302, 42496
luaH_getn, 13895, 3362
luaH_getn, 42496, 60716
luaH_getn, 60716, 35428
luaH_getn, 60716, 53842
luaH_getn, 35428, 45450
luaH_getn, 35428, 53842
luaH_getn, 45450, 3362
luaH_getn, 53842, 3362
luaH_getn, 53842, 60716
luaH_getn, 3362, 57716
luaH_getn, 3362, 972
luaH_getn, 57716, 26095
luaH_getn, 57716, 38185
luaH_getn, 972, 6034
luaH_getn, 972, 20408
luaH_getn, 6034, 12704
luaH_getn, 6034, 30809
luaH_getn, 12704, 62677
luaH_getn, 30809, 49163
luaH_getn, 49163, 59874
luaH_getn, 49163, 42535
luaH_getn, 59874, 34226
luaH_getn, 59874, 42535
luaH_getn, 34226, 62677
luaH_getn, 42535, 62677
luaH_getn, 42535, 49163
luaH_getn, 62677, 38185
luaH_getn, 62677, 6034
luaH_getn, 20408, 54302
luaH_getn, 26095, 25745
luaH_getn, 26095, 55087
luaH_getn, 25745, 45631
luaH_getn, 55087, 19305
luaH_getn, 19305, 20763
luaH_getn, 19305, 22233
luaH_getn, 20763, 49411
luaH_getn, 20763, 22233
luaH_getn, 49411, 45631
luaH_getn, 22233, 45631
luaH_getn, 22233, 19305
luaH_getn, 45631, 26095
luaH_getn, 45631, 38185
