luaS_eqlngstr, 54558, 21886
luaS_eqlngstr, 54558, 64919
luaS_eqlngstr, 64919, 31017
luaS_eqlngstr, 64919, 21886
luaS_eqlngstr, 31017, 21886
luaS_hash, 37486, 40829
luaS_hash, 37486, 40566
luaS_hash, 40829, 40829
luaS_hash, 40829, 40566
luaS_hashlongstr, 20627, 53905
luaS_hashlongstr, 20627, 17230
luaS_hashlongstr, 53905, 63079
luaS_hashlongstr, 53905, 48529
luaS_hashlongstr, 63079, 63079
luaS_hashlongstr, 63079, 48529
luaS_hashlongstr, 48529, 17230
luaS_resize, 33411, 27914
luaS_resize, 33411, 29915
luaS_resize, 27914, 24519
luaS_resize, 27914, 49960
luaS_resize, 49960, 61982
luaS_resize, 49960, 29915
luaS_resize, 61982, 15323
luaS_resize, 61982, 61982
luaS_resize, 15323, 29915
luaS_resize, 29915, 64974
luaS_resize, 29915, 31117
luaS_resize, 64974, 41553
luaS_resize, 41553, 51893
luaS_resize, 41553, 44293
luaS_resize, 44293, 51893
luaS_resize, 44293, 44293
luaS_resize, 51893, 41553
luaS_resize, 51893, 31117
luaS_resize, 31117, 9065
luaS_resize, 31117, 49353
luaS_resize, 9065, 908
luaS_resize, 9065, 14066
luaS_resize, 14066, 49353
luaS_clearcache, 42752, 64725
luaS_clearcache, 64725, 15276
luaS_clearcache, 64725, 27861
luaS_clearcache, 27861, 15276
luaS_clearcache, 15276, 2272
luaS_clearcache, 15276, 51770
luaS_clearcache, 51770, 2272
luaS_clearcache, 2272, 32957
luaS_clearcache, 2272, 64725
luaS_init, 64738, 25941
luaS_init, 25941, 60408
luaS_init, 25941, 25941
luaS_newlstr, 42879, 52560
luaS_newlstr, 42879, 63626
luaS_newlstr, 52560, 54650
luaS_newlstr, 52560, 44002
luaS_newlstr, 54650, 54650
luaS_newlstr, 54650, 44002
luaS_newlstr, 44002, 26182
luaS_newlstr, 44002, 6071
luaS_newlstr, 6071, 50658
luaS_newlstr, 6071, 33461
luaS_newlstr, 50658, 39550
luaS_newlstr, 50658, 33461
luaS_newlstr, 39550, 50558
luaS_newlstr, 39550, 36329
luaS_newlstr, 50558, 36329
luaS_newlstr, 33461, 26182
luaS_newlstr, 33461, 6071
luaS_newlstr, 26182, 30897
luaS_newlstr, 26182, 63754
luaS_newlstr, 30897, 63754
luaS_newlstr, 63754, 36329
luaS_newlstr, 63626, 11458
luaS_newlstr, 63626, 40916
luaS_newlstr, 40916, 36329
luaS_remove, 4668, 10954
luaS_remove, 4668, 11286
luaS_remove, 11286, 24615
luaS_remove, 11286, 11286
luaS_remove, 24615, 10954
luaS_new, 644, 52380
luaS_new, 644, 59585
luaS_new, 59585, 52380
luaS_new, 59585, 51500
luaS_new, 51500, 52380
luaS_newudata, 28392, 25444
luaS_newudata, 28392, 50030
