luaM_growaux_, 41120, 44732
luaM_growaux_, 41120, 26319
luaM_growaux_, 26319, 40790
luaM_growaux_, 26319, 59770
luaM_growaux_, 44732, 40790
luaM_growaux_, 40790, 40889
luaM_growaux_, 40790, 35150
luaM_growaux_, 35150, 61524
luaM_growaux_, 35150, 43418
luaM_growaux_, 61524, 43418
luaM_growaux_, 61524, 43522
luaM_growaux_, 43522, 53693
luaM_growaux_, 43522, 54790
luaM_growaux_, 54790, 53693
luaM_growaux_, 54790, 43418
luaM_realloc_, 26343, 23444
luaM_realloc_, 26343, 60935
luaM_realloc_, 23444, 60935
luaM_realloc_, 23444, 49800
luaM_realloc_, 49800, 46228
luaM_realloc_, 49800, 14749
luaM_realloc_, 14749, 46228
luaM_realloc_, 14749, 60935
