luaL_traceback, 33006, 42718
luaL_traceback, 42718, 64622
luaL_traceback, 42718, 42718
luaL_traceback, 64622, 898
luaL_traceback, 64622, 14190
luaL_traceback, 898, 898
luaL_traceback, 898, 14190
luaL_traceback, 14190, 21936
luaL_traceback, 14190, 63751
luaL_traceback, 63751, 21936
luaL_traceback, 21936, 34269
luaL_traceback, 21936, 61578
luaL_traceback, 34269, 61578
luaL_traceback, 61578, 62440
luaL_traceback, 61578, 48575
luaL_traceback, 48575, 18312
luaL_traceback, 18312, 63993
luaL_traceback, 18312, 5725
luaL_traceback, 63993, 10343
luaL_traceback, 5725, 16870
luaL_traceback, 5725, 44887
luaL_traceback, 16870, 44887
luaL_traceback, 44887, 3512
luaL_traceback, 44887, 7806
luaL_traceback, 7806, 65061
luaL_traceback, 3512, 65310
luaL_traceback, 3512, 51659
luaL_traceback, 51659, 65061
luaL_traceback, 65310, 10780
luaL_traceback, 65310, 23499
luaL_traceback, 65310, 16989
luaL_traceback, 23499, 65061
luaL_traceback, 10780, 65061
luaL_traceback, 16989, 65061
luaL_traceback, 65061, 9569
luaL_traceback, 65061, 61341
luaL_traceback, 61341, 9569
luaL_traceback, 9569, 10343
luaL_traceback, 10343, 62440
luaL_traceback, 10343, 18312
luaL_checkstack, 9848, 5615
luaL_checkstack, 9848, 62860
luaL_checkstack, 5615, 40177
luaL_checkstack, 5615, 16799
luaL_checkstack, 16799, 62860
luaL_checkstack, 40177, 62860
luaL_argerror, 9593, 46288
luaL_argerror, 9593, 36005
luaL_argerror, 46288, 40203
luaL_argerror, 36005, 23332
luaL_argerror, 36005, 13966
luaL_argerror, 23332, 25966
luaL_argerror, 23332, 13966
luaL_argerror, 25966, 40203
luaL_argerror, 13966, 26044
luaL_argerror, 13966, 63494
luaL_argerror, 26044, 54151
luaL_argerror, 26044, 21059
luaL_argerror, 21059, 54151
luaL_argerror, 54151, 63494
luaL_argerror, 63494, 40203
luaL_error, 53684, 29553
luaL_error, 53684, 34524
luaL_error, 34524, 30785
luaL_error, 34524, 29553
luaL_error, 30785, 52855
luaL_error, 29553, 52855
pushglobalfuncname, 11557, 46633
pushglobalfuncname, 11557, 48515
pushglobalfuncname, 48515, 37858
pushglobalfuncname, 48515, 28813
pushglobalfuncname, 37858, 28813
pushglobalfuncname, 28813, 46633
luaL_where, 23781, 10707
luaL_where, 23781, 52551
luaL_where, 52551, 42755
luaL_where, 52551, 10707
luaL_where, 42755, 26686
luaL_where, 10707, 26686
luaL_fileresult, 48520, 19782
luaL_fileresult, 48520, 31193
luaL_fileresult, 31193, 47600
luaL_fileresult, 19782, 24552
luaL_fileresult, 19782, 26674
luaL_fileresult, 26674, 22947
luaL_fileresult, 24552, 22947
luaL_fileresult, 22947, 47600
luaL_execresult, 18136, 12237
luaL_execresult, 18136, 18212
luaL_execresult, 12237, 28359
luaL_execresult, 18212, 24193
luaL_execresult, 18212, 477
luaL_execresult, 24193, 21297
luaL_execresult, 477, 21297
luaL_execresult, 21297, 52374
luaL_execresult, 21297, 18410
luaL_execresult, 52374, 17380
luaL_execresult, 18410, 17380
luaL_execresult, 17380, 28359
luaL_newmetatable, 18904, 45016
luaL_newmetatable, 18904, 31941
luaL_newmetatable, 45016, 31941
luaL_testudata, 40141, 39691
luaL_testudata, 40141, 60814
luaL_testudata, 60814, 39691
luaL_testudata, 60814, 61559
luaL_testudata, 61559, 39691
luaL_checkudata, 851, 44560
luaL_checkudata, 851, 56228
luaL_checkudata, 56228, 44560
luaL_checkudata, 56228, 9556
luaL_checkudata, 9556, 44560
luaL_checkudata, 9556, 43995
luaL_checkudata, 44560, 43995
typeerror, 9919, 27924
typeerror, 9919, 64366
typeerror, 64366, 44412
typeerror, 64366, 20884
typeerror, 44412, 27924
typeerror, 20884, 63312
typeerror, 20884, 27924
typeerror, 63312, 33449
typeerror, 27924, 33449
typeerror, 27924, 42178
typeerror, 42178, 33449
luaL_checkoption, 60808, 47151
luaL_checkoption, 60808, 44972
luaL_checkoption, 44972, 39263
luaL_checkoption, 44972, 43708
luaL_checkoption, 43708, 33312
luaL_checkoption, 43708, 39263
luaL_checkoption, 33312, 39263
luaL_checkoption, 47151, 46390
luaL_checkoption, 47151, 39263
luaL_checkoption, 46390, 39263
luaL_checkoption, 39263, 21925
luaL_checkoption, 39263, 23611
luaL_checkoption, 23611, 40175
luaL_checkoption, 23611, 20688
luaL_checkoption, 20688, 21925
luaL_checkoption, 20688, 23611
luaL_checkoption, 21925, 40175
luaL_optlstring, 23457, 30099
luaL_optlstring, 23457, 27149
luaL_optlstring, 30099, 3921
luaL_optlstring, 30099, 29764
luaL_optlstring, 29764, 44197
luaL_optlstring, 29764, 53912
luaL_optlstring, 53912, 44197
luaL_optlstring, 44197, 3921
luaL_optlstring, 27149, 18611
luaL_optlstring, 27149, 3921
luaL_optlstring, 18611, 3921
luaL_checklstring, 39722, 29256
luaL_checklstring, 39722, 11713
luaL_checklstring, 29256, 11713
luaL_checktype, 45426, 57765
luaL_checktype, 45426, 52166
luaL_checktype, 52166, 57765
luaL_checkany, 143, 51365
luaL_checkany, 143, 4819
luaL_checkany, 51365, 4819
luaL_checknumber, 9447, 22669
luaL_checknumber, 9447, 32260
luaL_checknumber, 22669, 32260
luaL_optnumber, 47007, 14423
luaL_optnumber, 47007, 24965
luaL_optnumber, 24965, 64731
luaL_optnumber, 24965, 52006
luaL_optnumber, 64731, 52006
luaL_optnumber, 52006, 14423
luaL_checkinteger, 59494, 18709
luaL_checkinteger, 59494, 13896
luaL_checkinteger, 18709, 39962
luaL_checkinteger, 18709, 61460
luaL_checkinteger, 61460, 13896
luaL_checkinteger, 39962, 13896
luaL_optinteger, 20557, 20559
luaL_optinteger, 20557, 63707
luaL_optinteger, 63707, 15654
luaL_optinteger, 63707, 39654
luaL_optinteger, 15654, 5441
luaL_optinteger, 15654, 59960
luaL_optinteger, 59960, 39654
luaL_optinteger, 5441, 39654
luaL_optinteger, 39654, 20559
luaL_prepbuffsize, 52530, 27970
luaL_prepbuffsize, 52530, 26861
luaL_prepbuffsize, 27970, 58672
luaL_prepbuffsize, 27970, 54726
luaL_prepbuffsize, 58672, 54726
luaL_prepbuffsize, 54726, 26478
luaL_prepbuffsize, 54726, 2994
luaL_prepbuffsize, 2994, 41010
luaL_prepbuffsize, 26478, 52608
luaL_prepbuffsize, 26478, 13240
luaL_prepbuffsize, 13240, 52608
luaL_prepbuffsize, 52608, 41010
luaL_prepbuffsize, 41010, 26861
resizebox, 33006, 15303
resizebox, 33006, 46799
resizebox, 46799, 15303
luaL_addlstring, 54116, 54041
luaL_addlstring, 54116, 39152
luaL_addlstring, 39152, 54041
luaL_addstring, 28893, 58868
luaL_addstring, 28893, 65147
luaL_addstring, 65147, 58868
luaL_pushresult, 9123, 60781
luaL_pushresult, 9123, 62238
luaL_pushresult, 62238, 60781
luaL_addvalue, 37078, 51162
luaL_addvalue, 37078, 55482
luaL_addvalue, 55482, 51162
luaL_addvalue, 51162, 50384
luaL_addvalue, 51162, 40919
luaL_addvalue, 40919, 50384
luaL_ref, 48103, 18893
luaL_ref, 48103, 50623
luaL_ref, 18893, 12679
luaL_ref, 50623, 7307
luaL_ref, 50623, 33490
luaL_ref, 33490, 40282
luaL_ref, 7307, 40282
luaL_ref, 40282, 12679
luaL_unref, 13951, 17844
luaL_unref, 13951, 61165
luaL_unref, 17844, 61165
luaL_loadfilex, 49432, 30744
luaL_loadfilex, 49432, 13681
luaL_loadfilex, 30744, 54556
luaL_loadfilex, 13681, 15501
luaL_loadfilex, 13681, 54556
luaL_loadfilex, 15501, 16892
luaL_loadfilex, 54556, 29757
luaL_loadfilex, 54556, 25557
luaL_loadfilex, 25557, 29757
luaL_loadfilex, 29757, 59151
luaL_loadfilex, 29757, 48583
luaL_loadfilex, 48583, 62956
luaL_loadfilex, 48583, 58801
luaL_loadfilex, 62956, 16892
luaL_loadfilex, 58801, 59151
luaL_loadfilex, 59151, 3539
luaL_loadfilex, 59151, 8736
luaL_loadfilex, 8736, 3539
luaL_loadfilex, 3539, 8180
luaL_loadfilex, 3539, 55479
luaL_loadfilex, 55479, 8180
luaL_loadfilex, 8180, 32364
luaL_loadfilex, 8180, 29174
luaL_loadfilex, 29174, 16892
luaL_loadfilex, 32364, 16892
skipcomment, 9974, 17792
skipcomment, 9974, 19939
skipcomment, 9974, 13320
skipcomment, 13320, 17792
skipcomment, 13320, 19939
skipcomment, 13320, 28002
skipcomment, 28002, 17792
skipcomment, 28002, 19939
skipcomment, 28002, 36117
skipcomment, 36117, 17792
skipcomment, 17792, 7069
skipcomment, 17792, 33881
skipcomment, 7069, 7069
skipcomment, 7069, 35702
skipcomment, 7069, 35702
skipcomment, 35702, 19939
skipcomment, 19939, 33881
getF, 35611, 51362
getF, 35611, 58804
getF, 51362, 51619
getF, 58804, 11127
getF, 58804, 16825
getF, 11127, 51619
getF, 51619, 16825
getS, 35368, 10661
getS, 35368, 25794
getS, 25794, 10661
luaL_getmetafield, 15540, 26745
luaL_getmetafield, 15540, 43666
luaL_getmetafield, 43666, 15024
luaL_getmetafield, 43666, 62998
luaL_getmetafield, 62998, 15024
luaL_getmetafield, 15024, 26745
luaL_callmeta, 3228, 65272
luaL_callmeta, 3228, 10654
luaL_callmeta, 10654, 6578
luaL_callmeta, 10654, 18938
luaL_callmeta, 6578, 65272
luaL_callmeta, 18938, 65272
luaL_len, 61172, 62563
luaL_len, 61172, 61056
luaL_len, 62563, 61056
luaL_tolstring, 28840, 16027
luaL_tolstring, 28840, 19196
luaL_tolstring, 19196, 34636
luaL_tolstring, 19196, 41968
luaL_tolstring, 34636, 41968
luaL_tolstring, 16027, 53004
luaL_tolstring, 16027, 20444
luaL_tolstring, 16027, 20568
luaL_tolstring, 16027, 50154
luaL_tolstring, 16027, 44556
luaL_tolstring, 20444, 44832
luaL_tolstring, 20444, 10836
luaL_tolstring, 10836, 41968
luaL_tolstring, 44832, 41968
luaL_tolstring, 20568, 41968
luaL_tolstring, 50154, 41968
luaL_tolstring, 44556, 41968
luaL_tolstring, 53004, 53570
luaL_tolstring, 53004, 49394
luaL_tolstring, 49394, 33722
luaL_tolstring, 49394, 10941
luaL_tolstring, 33722, 53570
luaL_tolstring, 10941, 10499
luaL_tolstring, 10941, 53570
luaL_tolstring, 10499, 12644
luaL_tolstring, 53570, 12644
luaL_tolstring, 12644, 41968
luaL_tolstring, 12644, 58238
luaL_tolstring, 58238, 41968
luaL_setfuncs, 60046, 22218
luaL_setfuncs, 60046, 32344
luaL_setfuncs, 22218, 32344
luaL_setfuncs, 32344, 26555
luaL_setfuncs, 32344, 42929
luaL_setfuncs, 42929, 49575
luaL_setfuncs, 49575, 18600
luaL_setfuncs, 49575, 18743
luaL_setfuncs, 18600, 18743
luaL_setfuncs, 18600, 18600
luaL_setfuncs, 18743, 26555
luaL_setfuncs, 18743, 49575
luaL_getsubtable, 58809, 25491
luaL_getsubtable, 58809, 47632
luaL_getsubtable, 47632, 25491
luaL_requiref, 10677, 20756
luaL_requiref, 10677, 31935
luaL_requiref, 31935, 20756
luaL_requiref, 20756, 5065
luaL_requiref, 20756, 33367
luaL_requiref, 5065, 33367
luaL_requiref, 33367, 4922
luaL_requiref, 33367, 59600
luaL_requiref, 59600, 4922
luaL_gsub, 57100, 25496
luaL_gsub, 57100, 13786
luaL_gsub, 13786, 4200
luaL_gsub, 13786, 9862
luaL_gsub, 9862, 4200
luaL_gsub, 4200, 31207
luaL_gsub, 4200, 38454
luaL_gsub, 38454, 31207
luaL_gsub, 31207, 25496
luaL_gsub, 31207, 13786
luaL_gsub, 25496, 5899
luaL_gsub, 25496, 35943
luaL_gsub, 35943, 5899
luaL_newstate, 64513, 62471
luaL_newstate, 64513, 4405
luaL_newstate, 4405, 62471
l_alloc, 16922, 9045
l_alloc, 16922, 20352
l_alloc, 9045, 37395
l_alloc, 20352, 37395
luaL_checkversion_, 53056, 34752
luaL_checkversion_, 53056, 18031
luaL_checkversion_, 18031, 34752
luaL_checkversion_, 34752, 22678
luaL_checkversion_, 34752, 22475
luaL_checkversion_, 22475, 33423
luaL_checkversion_, 22678, 13727
luaL_checkversion_, 22678, 33423
luaL_checkversion_, 13727, 33423
findfield, 39705, 30671
findfield, 39705, 57460
findfield, 57460, 52134
findfield, 57460, 30671
findfield, 52134, 30671
findfield, 52134, 53580
findfield, 53580, 19162
findfield, 19162, 14506
findfield, 19162, 13487
findfield, 14506, 51430
findfield, 14506, 11057
findfield, 11057, 30671
findfield, 51430, 13487
findfield, 51430, 37547
findfield, 37547, 30671
findfield, 13487, 30671
findfield, 13487, 19162
