None, luaopen_package
None, luaL_checkversion_
None, lua_createtable
None, luaL_setfuncs
None, lua_pushstring
None, lua_setfield
None, luaL_getsubtable
None, lua_rawgeti
None, lua_pushvalue
None, lua_settop
None, lua_pushcclosure
None, gctm
None, lua_setmetatable
None, lua_rawsetp
None, llvm.lifetime.start.p0i8
None, luaL_len
None, lua_touserdata
None, llvm.lifetime.end.p0i8
None, dlclose
None, ll_loadlib
None, ll_searchpath
None, luaL_checklstring
None, lua_pushnil
None, lua_rotate
None, lua_pushboolean
None, lua_rawgetp
None, lua_getfield
None, dlopen
None, dlerror
None, lua_pushlightuserdata
None, lua_rawseti
None, dlsym
None, luaL_optlstring
None, luaL_buffinit
None, luaL_gsub
None, lua_tolstring
None, lua_pushfstring
None, luaL_addvalue
None, luaL_pushresult
None, strchr
None, strlen
None, lua_pushlstring
None, fopen64
None, fclose
None, searcher_preload
None, searcher_Lua
None, searcher_C
None, searcher_Croot
None, luaL_loadfilex
None, luaL_error
None, getenv
None, lua_toboolean
None, ll_require
None, lua_callk
None, lua_type
None, lua_isstring
gctm, luaL_len
gctm, lua_rawgeti
gctm, lua_touserdata
gctm, dlclose
gctm, lua_settop
ll_loadlib, luaL_checklstring
ll_loadlib, luaL_checklstring
ll_loadlib, lookforfunc
ll_loadlib, lua_pushnil
ll_loadlib, lua_rotate
ll_loadlib, lua_pushstring
ll_require, luaL_checklstring
ll_require, lua_settop
ll_require, lua_getfield
ll_require, lua_getfield
ll_require, lua_toboolean
ll_require, lua_settop
ll_require, luaL_buffinit
ll_require, lua_getfield
ll_require, luaL_error
ll_require, lua_rawgeti
ll_require, lua_settop
ll_require, luaL_pushresult
ll_require, lua_tolstring
ll_require, luaL_error
ll_require, lua_pushstring
ll_require, lua_callk
ll_require, lua_type
ll_require, lua_isstring
ll_require, lua_settop
ll_require, luaL_addvalue
ll_require, lua_settop
ll_require, lua_pushstring
ll_require, lua_rotate
ll_require, lua_callk
ll_require, lua_type
ll_require, lua_setfield
ll_require, lua_getfield
ll_require, lua_pushboolean
ll_require, lua_pushvalue
ll_require, lua_setfield
ll_searchpath, luaL_checklstring
ll_searchpath, luaL_checklstring
ll_searchpath, luaL_optlstring
ll_searchpath, luaL_optlstring
ll_searchpath, searchpath
ll_searchpath, lua_pushnil
ll_searchpath, lua_rotate
loadfunc, luaL_gsub
loadfunc, strchr
loadfunc, lua_pushlstring
loadfunc, lua_pushfstring
loadfunc, lookforfunc
loadfunc, lua_pushfstring
loadfunc, lookforfunc
lookforfunc, lua_rawgetp
lookforfunc, lua_getfield
lookforfunc, lua_touserdata
lookforfunc, lua_settop
lookforfunc, dlopen
lookforfunc, dlerror
lookforfunc, lua_pushstring
lookforfunc, lua_rawgetp
lookforfunc, lua_pushlightuserdata
lookforfunc, lua_pushvalue
lookforfunc, lua_setfield
lookforfunc, luaL_len
lookforfunc, lua_rawseti
lookforfunc, lua_settop
lookforfunc, lua_pushboolean
lookforfunc, dlsym
lookforfunc, dlerror
lookforfunc, lua_pushstring
lookforfunc, lua_pushcclosure
luaopen_package, lua_createtable
luaopen_package, lua_createtable
luaopen_package, lua_pushcclosure
luaopen_package, lua_setfield
luaopen_package, lua_setmetatable
luaopen_package, lua_rawsetp
luaopen_package, luaL_checkversion_
luaopen_package, lua_createtable
luaopen_package, luaL_setfuncs
luaopen_package, lua_createtable
luaopen_package, lua_pushvalue
luaopen_package, lua_pushcclosure
luaopen_package, lua_rawseti
luaopen_package, lua_pushvalue
luaopen_package, lua_pushcclosure
luaopen_package, lua_rawseti
luaopen_package, lua_pushvalue
luaopen_package, lua_pushcclosure
luaopen_package, lua_rawseti
luaopen_package, lua_pushvalue
luaopen_package, lua_pushcclosure
luaopen_package, lua_rawseti
luaopen_package, lua_setfield
luaopen_package, setpath
luaopen_package, setpath
luaopen_package, lua_pushstring
luaopen_package, lua_setfield
luaopen_package, luaL_getsubtable
luaopen_package, lua_setfield
luaopen_package, luaL_getsubtable
luaopen_package, lua_setfield
luaopen_package, lua_rawgeti
luaopen_package, lua_pushvalue
luaopen_package, luaL_setfuncs
luaopen_package, lua_settop
searcher_C, luaL_checklstring
searcher_C, lua_getfield
searcher_C, lua_tolstring
searcher_C, luaL_error
searcher_C, searchpath
searcher_C, loadfunc
searcher_C, lua_pushstring
searcher_C, lua_tolstring
searcher_C, lua_tolstring
searcher_C, luaL_error
searcher_Croot, luaL_checklstring
searcher_Croot, strchr
searcher_Croot, lua_pushlstring
searcher_Croot, lua_tolstring
searcher_Croot, lua_getfield
searcher_Croot, lua_tolstring
searcher_Croot, luaL_error
searcher_Croot, searchpath
searcher_Croot, loadfunc
searcher_Croot, lua_tolstring
searcher_Croot, lua_tolstring
searcher_Croot, luaL_error
searcher_Croot, lua_pushfstring
searcher_Croot, lua_pushstring
searcher_Lua, luaL_checklstring
searcher_Lua, lua_getfield
searcher_Lua, lua_tolstring
searcher_Lua, luaL_error
searcher_Lua, searchpath
searcher_Lua, luaL_loadfilex
searcher_Lua, lua_pushstring
searcher_Lua, lua_tolstring
searcher_Lua, lua_tolstring
searcher_Lua, luaL_error
searcher_preload, luaL_checklstring
searcher_preload, lua_getfield
searcher_preload, lua_getfield
searcher_preload, lua_pushfstring
searchpath, luaL_buffinit
searchpath, luaL_gsub
searchpath, strchr
searchpath, strlen
searchpath, lua_pushlstring
searchpath, lua_tolstring
searchpath, luaL_gsub
searchpath, lua_rotate
searchpath, lua_settop
searchpath, fopen64
searchpath, fclose
searchpath, lua_pushfstring
searchpath, lua_rotate
searchpath, lua_settop
searchpath, luaL_addvalue
searchpath, luaL_pushresult
setpath, lua_pushfstring
setpath, getenv
setpath, getenv
setpath, lua_getfield
setpath, lua_toboolean
setpath, lua_settop
setpath, lua_pushstring
setpath, luaL_gsub
setpath, luaL_gsub
setpath, lua_rotate
setpath, lua_settop
setpath, lua_setfield
setpath, lua_settop
