None, main
None, llvm.lifetime.start.p0i8
None, luaL_newstate
None, lua_pushcclosure
None, pmain
None, lua_pushinteger
None, lua_pushlightuserdata
None, lua_pcallk
None, lua_toboolean
None, lua_close
None, llvm.lifetime.end.p0i8
None, fprintf
None, fflush
None, lua_tointegerx
None, lua_touserdata
None, luaL_checkversion_
None, lua_pushboolean
None, lua_setfield
None, luaL_openlibs
None, isatty
None, fwrite
None, lua_createtable
None, lua_pushstring
None, lua_rawseti
None, lua_setglobal
None, getenv
None, luaL_loadbufferx
None, strlen
None, lua_gettop
None, msghandler
None, lua_rotate
None, __sysv_signal
None, laction
None, lua_settop
None, lua_tolstring
None, luaL_callmeta
None, lua_type
None, lua_pushfstring
None, lua_typename
None, luaL_traceback
None, lua_sethook
None, lstop
None, luaL_error
None, lua_getglobal
None, strcmp
None, luaL_loadfilex
None, luaL_len
None, luaL_checkstack
None, lua_rawgeti
None, readline
None, lua_pushlstring
None, free
None, add_history
None, lua_concat
None, fputc
doREPL, lua_settop
doREPL, pushline
doREPL, lua_tolstring
doREPL, lua_pushfstring
doREPL, strlen
doREPL, luaL_loadbufferx
doREPL, lua_rotate
doREPL, lua_settop
doREPL, add_history
doREPL, lua_settop
doREPL, lua_tolstring
doREPL, luaL_loadbufferx
doREPL, lua_tolstring
doREPL, strcmp
doREPL, lua_settop
doREPL, pushline
doREPL, lua_pushstring
doREPL, lua_rotate
doREPL, lua_concat
doREPL, lua_tolstring
doREPL, luaL_loadbufferx
doREPL, lua_rotate
doREPL, lua_settop
doREPL, add_history
doREPL, lua_rotate
doREPL, lua_settop
doREPL, lua_gettop
doREPL, lua_pushcclosure
doREPL, lua_rotate
doREPL, __sysv_signal
doREPL, lua_pcallk
doREPL, __sysv_signal
doREPL, lua_rotate
doREPL, lua_settop
doREPL, lua_gettop
doREPL, luaL_checkstack
doREPL, lua_getglobal
doREPL, lua_rotate
doREPL, lua_pcallk
doREPL, lua_tolstring
doREPL, lua_pushfstring
doREPL, fprintf
doREPL, fflush
doREPL, fprintf
doREPL, fflush
doREPL, lua_tolstring
doREPL, fprintf
doREPL, fflush
doREPL, fprintf
doREPL, fflush
doREPL, lua_settop
doREPL, lua_settop
doREPL, pushline
doREPL, lua_settop
doREPL, fputc
doREPL, fflush
dostring, strlen
dostring, luaL_loadbufferx
dostring, lua_gettop
dostring, lua_pushcclosure
dostring, lua_rotate
dostring, __sysv_signal
dostring, lua_pcallk
dostring, __sysv_signal
dostring, lua_rotate
dostring, lua_settop
dostring, lua_tolstring
dostring, fprintf
dostring, fflush
dostring, fprintf
dostring, fflush
dostring, lua_settop
laction, __sysv_signal
laction, lua_sethook
lstop, lua_sethook
lstop, luaL_error
main, luaL_newstate
main, fprintf
main, fflush
main, fprintf
main, fflush
main, lua_pushcclosure
main, lua_pushinteger
main, lua_pushlightuserdata
main, lua_pcallk
main, lua_toboolean
main, lua_tolstring
main, fprintf
main, fflush
main, fprintf
main, fflush
main, lua_settop
main, lua_close
msghandler, lua_tolstring
msghandler, luaL_callmeta
msghandler, lua_type
msghandler, lua_type
msghandler, lua_typename
msghandler, lua_pushfstring
msghandler, luaL_traceback
pmain, lua_tointegerx
pmain, lua_touserdata
pmain, luaL_checkversion_
pmain, fprintf
pmain, fflush
pmain, fprintf
pmain, fflush
pmain, fprintf
pmain, fflush
pmain, fwrite
pmain, fputc
pmain, fflush
pmain, lua_pushboolean
pmain, lua_setfield
pmain, luaL_openlibs
pmain, lua_createtable
pmain, lua_pushstring
pmain, lua_rawseti
pmain, lua_setglobal
pmain, luaL_openlibs
pmain, lua_createtable
pmain, lua_pushstring
pmain, lua_rawseti
pmain, lua_setglobal
pmain, getenv
pmain, getenv
pmain, luaL_loadfilex
pmain, lua_gettop
pmain, lua_pushcclosure
pmain, lua_rotate
pmain, __sysv_signal
pmain, lua_pcallk
pmain, __sysv_signal
pmain, lua_rotate
pmain, lua_settop
pmain, lua_tolstring
pmain, fprintf
pmain, fflush
pmain, fprintf
pmain, fflush
pmain, lua_settop
pmain, dostring
pmain, lua_getglobal
pmain, lua_pushstring
pmain, lua_gettop
pmain, lua_pushcclosure
pmain, lua_rotate
pmain, __sysv_signal
pmain, lua_pcallk
pmain, __sysv_signal
pmain, lua_rotate
pmain, lua_settop
pmain, lua_setglobal
pmain, lua_tolstring
pmain, fprintf
pmain, fflush
pmain, fprintf
pmain, fflush
pmain, lua_settop
pmain, dostring
pmain, strcmp
pmain, strcmp
pmain, luaL_loadfilex
pmain, lua_getglobal
pmain, luaL_error
pmain, luaL_len
pmain, luaL_checkstack
pmain, lua_rawgeti
pmain, lua_rotate
pmain, lua_settop
pmain, lua_gettop
pmain, lua_pushcclosure
pmain, lua_rotate
pmain, __sysv_signal
pmain, lua_pcallk
pmain, __sysv_signal
pmain, lua_rotate
pmain, lua_settop
pmain, lua_tolstring
pmain, fprintf
pmain, fflush
pmain, fprintf
pmain, fflush
pmain, lua_settop
pmain, doREPL
pmain, isatty
pmain, fwrite
pmain, fputc
pmain, fflush
pmain, doREPL
pmain, luaL_loadfilex
pmain, lua_gettop
pmain, lua_pushcclosure
pmain, lua_rotate
pmain, __sysv_signal
pmain, lua_pcallk
pmain, __sysv_signal
pmain, lua_rotate
pmain, lua_settop
pmain, lua_tolstring
pmain, fprintf
pmain, fflush
pmain, fprintf
pmain, fflush
pmain, lua_settop
pmain, lua_pushboolean
pushline, lua_getglobal
pushline, lua_tolstring
pushline, readline
pushline, lua_settop
pushline, strlen
pushline, lua_pushfstring
pushline, lua_pushlstring
pushline, free
