None, luaL_openlibs
None, luaL_requiref
None, lua_settop
None, luaopen_base
None, luaopen_package
None, luaopen_coroutine
None, luaopen_table
None, luaopen_io
None, luaopen_os
None, luaopen_string
None, luaopen_math
None, luaopen_utf8
None, luaopen_debug
None, luaopen_bit32
luaL_openlibs, luaL_requiref
luaL_openlibs, lua_settop
luaL_openlibs, luaL_requiref
luaL_openlibs, lua_settop
luaL_openlibs, luaL_requiref
luaL_openlibs, lua_settop
luaL_openlibs, luaL_requiref
luaL_openlibs, lua_settop
luaL_openlibs, luaL_requiref
luaL_openlibs, lua_settop
luaL_openlibs, luaL_requiref
luaL_openlibs, lua_settop
luaL_openlibs, luaL_requiref
luaL_openlibs, lua_settop
luaL_openlibs, luaL_requiref
luaL_openlibs, lua_settop
luaL_openlibs, luaL_requiref
luaL_openlibs, lua_settop
luaL_openlibs, luaL_requiref
luaL_openlibs, lua_settop
luaL_openlibs, luaL_requiref
luaL_openlibs, lua_settop
