None, lua_checkstack
None, llvm.lifetime.start.p0i8
None, luaD_rawrunprotected
None, growstack
None, llvm.lifetime.end.p0i8
None, lua_xmove
None, llvm.memcpy.p0i8.p0i8.i32
None, lua_atpanic
None, lua_version
None, lua_absindex
None, lua_gettop
None, lua_settop
None, lua_rotate
None, lua_copy
None, luaC_barrier_
None, lua_pushvalue
None, lua_type
None, lua_typename
None, lua_iscfunction
None, lua_isinteger
None, lua_isnumber
None, luaV_tonumber_
None, lua_isstring
None, lua_isuserdata
None, lua_rawequal
None, luaV_equalobj
None, lua_arith
None, luaO_arith
None, lua_compare
None, luaV_lessthan
None, luaV_lessequal
None, lua_stringtonumber
None, luaO_str2num
None, lua_tonumberx
None, lua_tointegerx
None, luaV_tointeger
None, lua_toboolean
None, lua_tolstring
None, luaO_tostring
None, luaC_step
None, lua_rawlen
None, luaH_getn
None, lua_tocfunction
None, lua_touserdata
None, lua_tothread
None, lua_topointer
None, lua_pushnil
None, lua_pushnumber
None, lua_pushinteger
None, lua_pushlstring
None, luaS_new
None, luaS_newlstr
None, lua_pushstring
None, lua_pushvfstring
None, luaO_pushvfstring
None, lua_pushfstring
None, llvm.va_start
None, llvm.va_end
None, lua_pushcclosure
None, luaF_newCclosure
None, lua_pushboolean
None, lua_pushlightuserdata
None, lua_pushthread
None, lua_getglobal
None, luaH_getint
None, lua_gettable
None, luaH_get
None, luaV_finishget
None, lua_getfield
None, lua_geti
None, lua_rawget
None, lua_rawgeti
None, lua_rawgetp
None, lua_createtable
None, luaH_new
None, luaH_resize
None, lua_getmetatable
None, lua_getuservalue
None, lua_setglobal
None, lua_settable
None, luaC_barrierback_
None, luaV_finishset
None, lua_setfield
None, lua_seti
None, lua_rawset
None, luaH_set
None, lua_rawseti
None, luaH_setint
None, lua_rawsetp
None, lua_setmetatable
None, luaC_checkfinalizer
None, lua_setuservalue
None, lua_callk
None, luaD_call
None, luaD_callnoyield
None, lua_pcallk
None, luaD_pcall
None, f_call
None, lua_load
None, luaZ_init
None, luaD_protectedparser
None, luaC_upvalbarrier_
None, lua_dump
None, luaU_dump
None, lua_status
None, lua_gc
None, luaE_setdebt
None, luaC_fullgc
None, lua_error
None, luaG_errormsg
None, lua_next
None, luaH_next
None, lua_concat
None, luaV_concat
None, lua_len
None, luaV_objlen
None, lua_getallocf
None, lua_setallocf
None, lua_newuserdata
None, luaS_newudata
None, lua_getupvalue
None, lua_setupvalue
None, lua_upvalueid
None, lua_upvaluejoin
None, luaC_upvdeccount
None, luaD_growstack
None, luaH_getstr
auxsetstr, luaS_new
auxsetstr, luaH_getstr
auxsetstr, luaC_barrierback_
auxsetstr, luaV_finishset
f_call, luaD_callnoyield
growstack, luaD_growstack
lua_arith, luaO_arith
lua_callk, luaD_call
lua_callk, luaD_callnoyield
lua_checkstack, luaD_rawrunprotected
lua_compare, luaV_equalobj
lua_compare, luaV_lessthan
lua_compare, luaV_lessequal
lua_concat, luaV_concat
lua_concat, luaS_newlstr
lua_concat, luaC_step
lua_copy, luaC_barrier_
lua_createtable, luaH_new
lua_createtable, luaH_resize
lua_createtable, luaC_step
lua_dump, luaU_dump
lua_error, luaG_errormsg
lua_gc, luaE_setdebt
lua_gc, luaC_fullgc
lua_gc, luaE_setdebt
lua_gc, luaC_step
lua_gc, luaE_setdebt
lua_gc, luaC_step
lua_getfield, luaS_new
lua_getfield, luaH_getstr
lua_getfield, luaV_finishget
lua_getglobal, luaH_getint
lua_getglobal, luaS_new
lua_getglobal, luaH_getstr
lua_getglobal, luaV_finishget
lua_geti, luaH_getint
lua_geti, luaV_finishget
lua_gettable, luaH_get
lua_gettable, luaV_finishget
lua_isnumber, luaV_tonumber_
lua_len, luaV_objlen
lua_load, luaZ_init
lua_load, luaD_protectedparser
lua_load, luaH_getint
lua_load, luaC_upvalbarrier_
lua_newuserdata, luaS_newudata
lua_newuserdata, luaC_step
lua_next, luaH_next
lua_pcallk, luaD_pcall
lua_pcallk, luaD_call
lua_pushcclosure, luaF_newCclosure
lua_pushcclosure, luaC_step
lua_pushfstring, luaO_pushvfstring
lua_pushfstring, luaC_step
lua_pushlstring, luaS_new
lua_pushlstring, luaS_newlstr
lua_pushlstring, luaC_step
lua_pushstring, luaS_new
lua_pushstring, luaC_step
lua_pushvfstring, luaO_pushvfstring
lua_pushvfstring, luaC_step
lua_rawequal, luaV_equalobj
lua_rawget, luaH_get
lua_rawgeti, luaH_getint
lua_rawgetp, luaH_get
lua_rawlen, luaH_getn
lua_rawset, luaH_set
lua_rawset, luaC_barrierback_
lua_rawseti, luaH_setint
lua_rawseti, luaC_barrierback_
lua_rawsetp, luaH_set
lua_rawsetp, luaC_barrierback_
lua_setfield, auxsetstr
lua_setglobal, luaH_getint
lua_setglobal, auxsetstr
lua_seti, luaH_getint
lua_seti, luaC_barrierback_
lua_seti, luaV_finishset
lua_setmetatable, luaC_barrier_
lua_setmetatable, luaC_checkfinalizer
lua_setmetatable, luaC_barrier_
lua_setmetatable, luaC_checkfinalizer
lua_settable, luaH_get
lua_settable, luaC_barrierback_
lua_settable, luaV_finishset
lua_setupvalue, luaC_barrier_
lua_setupvalue, luaC_upvalbarrier_
lua_setuservalue, luaC_barrier_
lua_stringtonumber, luaO_str2num
lua_tointegerx, luaV_tointeger
lua_tolstring, luaO_tostring
lua_tolstring, luaC_step
lua_tonumberx, luaV_tonumber_
lua_upvaluejoin, luaC_upvdeccount
lua_upvaluejoin, luaC_upvalbarrier_
