None, lua_sethook
None, lua_gethook
None, lua_gethookmask
None, lua_gethookcount
None, lua_getstack
None, llvm.lifetime.start.p0i8
None, llvm.lifetime.end.p0i8
None, lua_getlocal
None, luaF_getlocalname
None, llvm.memcpy.p0i8.p0i8.i32
None, lua_setlocal
None, lua_getinfo
None, strchr
None, luaG_typeerror
None, luaT_objtypename
None, luaG_runerror
None, luaG_concaterror
None, luaG_opinterror
None, luaV_tonumber_
None, luaG_tointerror
None, luaV_tointeger
None, luaG_ordererror
None, strcmp
None, luaG_addinfo
None, luaO_chunkid
None, luaO_pushfstring
None, luaG_errormsg
None, luaD_callnoyield
None, luaD_throw
None, luaC_step
None, llvm.va_start
None, luaO_pushvfstring
None, llvm.va_end
None, luaG_traceexec
None, luaD_hook
None, luaH_new
None, luaH_setint
getobjname, luaF_getlocalname
getobjname, luaF_getlocalname
getobjname, getobjname
getobjname, strcmp
getobjname, getobjname
luaG_addinfo, luaO_chunkid
luaG_addinfo, luaO_pushfstring
luaG_concaterror, luaG_typeerror
luaG_errormsg, luaD_callnoyield
luaG_errormsg, luaD_throw
luaG_opinterror, luaV_tonumber_
luaG_opinterror, luaG_typeerror
luaG_ordererror, luaT_objtypename
luaG_ordererror, luaT_objtypename
luaG_ordererror, strcmp
luaG_ordererror, luaG_runerror
luaG_ordererror, luaG_runerror
luaG_runerror, luaC_step
luaG_runerror, luaO_pushvfstring
luaG_runerror, luaO_chunkid
luaG_runerror, luaO_pushfstring
luaG_runerror, luaG_errormsg
luaG_tointerror, luaV_tointeger
luaG_tointerror, varinfo
luaG_tointerror, luaG_runerror
luaG_traceexec, luaD_hook
luaG_traceexec, luaD_hook
luaG_traceexec, luaD_throw
luaG_typeerror, luaT_objtypename
luaG_typeerror, varinfo
luaG_typeerror, luaG_runerror
lua_getinfo, luaO_chunkid
lua_getinfo, getobjname
lua_getinfo, strchr
lua_getinfo, strchr
lua_getinfo, luaH_new
lua_getinfo, luaH_setint
lua_getlocal, luaF_getlocalname
lua_getlocal, luaF_getlocalname
lua_setlocal, luaF_getlocalname
varinfo, getobjname
varinfo, luaO_pushfstring
