None, luaopen_bit32
None, luaL_checkversion_
None, lua_createtable
None, luaL_setfuncs
None, b_arshift
None, b_and
None, b_not
None, b_or
None, b_xor
None, b_test
None, b_extract
None, b_lrot
None, b_lshift
None, b_replace
None, b_rrot
None, b_rshift
None, luaL_checkinteger
None, lua_pushinteger
None, lua_gettop
None, lua_pushboolean
None, luaL_optinteger
None, luaL_argerror
None, luaL_error
b_and, lua_gettop
b_and, luaL_checkinteger
b_and, lua_pushinteger
b_arshift, luaL_checkinteger
b_arshift, luaL_checkinteger
b_arshift, lua_pushinteger
b_extract, luaL_checkinteger
b_extract, luaL_checkinteger
b_extract, luaL_optinteger
b_extract, luaL_argerror
b_extract, luaL_argerror
b_extract, luaL_error
b_extract, lua_pushinteger
b_lrot, luaL_checkinteger
b_lrot, luaL_checkinteger
b_lrot, lua_pushinteger
b_lshift, luaL_checkinteger
b_lshift, luaL_checkinteger
b_lshift, lua_pushinteger
b_not, luaL_checkinteger
b_not, lua_pushinteger
b_or, lua_gettop
b_or, luaL_checkinteger
b_or, lua_pushinteger
b_replace, luaL_checkinteger
b_replace, luaL_checkinteger
b_replace, luaL_checkinteger
b_replace, luaL_optinteger
b_replace, luaL_argerror
b_replace, luaL_argerror
b_replace, luaL_error
b_replace, lua_pushinteger
b_rrot, luaL_checkinteger
b_rrot, luaL_checkinteger
b_rrot, lua_pushinteger
b_rshift, luaL_checkinteger
b_rshift, luaL_checkinteger
b_rshift, lua_pushinteger
b_test, lua_gettop
b_test, luaL_checkinteger
b_test, lua_pushboolean
b_xor, lua_gettop
b_xor, luaL_checkinteger
b_xor, lua_pushinteger
luaopen_bit32, luaL_checkversion_
luaopen_bit32, lua_createtable
luaopen_bit32, luaL_setfuncs
